# This file uses centimeters as units for non-parametric coordinates.

mtllib bib_sol_epaisseur.mtl
g default
v 0.000000 0.171067 -3.868304
v 0.000000 0.171067 3.868304
v -1.279589 0.171067 3.199200
v -2.806391 0.171067 1.179263
v -2.993849 0.171067 0.000000
v -2.185682 0.170867 2.294432
v -1.279589 0.171067 -3.199200
v -2.806391 0.171067 -1.179263
v -2.223683 0.170867 -2.294432
v 0.000000 0.171072 -4.186506
v 0.000000 0.171072 4.186506
v -1.242666 0.171072 3.501655
v -2.973069 0.171072 1.276268
v -3.185524 0.171072 0.000000
v -2.312656 0.170863 2.483169
v -1.242666 0.171072 -3.501655
v -2.973069 0.171072 -1.276268
v -2.312656 0.170863 -2.483169
v 0.000000 0.000105 -4.186506
v 0.000000 0.000105 4.186506
v -1.242666 0.000105 3.501655
v -2.973069 0.000105 1.276268
v -3.185524 0.000105 0.000000
v -2.312656 -0.000105 2.483169
v -1.242666 0.000105 -3.501655
v -2.973069 0.000105 -1.276268
v -2.312656 -0.000105 -2.483169
v 0.000000 -0.000000 3.868304
v -1.279589 -0.000000 3.199200
v -2.806391 -0.000000 1.179263
v -2.993849 -0.000000 -0.000000
v -2.185682 -0.000200 2.294432
v -1.279589 0.000000 -3.199200
v 0.000000 -0.000000 -3.868304
v -2.806391 0.000000 -1.179263
v -2.223683 -0.000200 -2.294432
vt 0.920783 0.127306
vt 0.772128 0.017586
vt 0.785121 0.000000
vt 0.933354 0.109647
vt 0.350454 0.611395
vt 0.351043 0.466605
vt 0.371190 0.466605
vt 0.371781 0.611395
vt 0.350812 0.768114
vt 0.371371 0.768114
vt 0.351079 0.918435
vt 0.371157 0.918435
vt 0.370847 0.164226
vt 0.487249 0.023429
vt 0.499794 0.037289
vt 0.387449 0.177530
vt 0.351426 0.330093
vt 0.370812 0.330093
vt 0.351575 0.188964
vt 0.370613 0.188964
vt 0.351661 0.044406
vt 0.370574 0.044406
vt 0.939680 0.379554
vt 0.864246 0.228905
vt 0.899454 0.233832
vt 0.976803 0.380206
vt 0.631727 0.046647
vt 0.494537 0.022361
vt 0.494930 0.000000
vt 0.643385 0.027401
vt 0.760550 0.121344
vt 0.782830 0.106918
vt 0.117802 0.215791
vt 0.037122 0.363697
vt 0.000000 0.363045
vt 0.082442 0.219479
vt 0.356579 0.041813
vt 0.345604 0.022169
vt 0.225288 0.107506
vt 0.203452 0.096740
vt 0.952345 0.146374
vt 0.953672 0.300752
vt 0.935193 0.300881
vt 0.934508 0.148478
vt 1.000000 0.306974
vt 0.999788 0.484281
vt 0.977217 0.484281
vt 0.977004 0.306974
vt 0.997686 0.149673
vt 0.979272 0.149673
vt 0.997166 0.000000
vt 0.979836 0.000000
vt 0.622289 0.175383
vt 0.511506 0.041246
vt 0.524464 0.027767
vt 0.638435 0.161840
vt 0.998667 0.648983
vt 0.978329 0.648983
vt 0.997712 0.801764
vt 0.979246 0.801764
vt 0.997499 0.957223
vt 0.979503 0.957222
vn 0.463379 0.000000 -0.886160
vn 0.463379 0.000000 -0.886160
vn 0.463379 0.000000 -0.886160
vn 0.463379 0.000000 -0.886160
vn 0.987600 0.000000 -0.156991
vn 0.987600 0.000000 -0.156991
vn 0.987600 0.000000 -0.156991
vn 0.987600 0.000000 -0.156991
vn 0.873768 0.000000 -0.486344
vn 0.873768 0.000000 -0.486344
vn 0.873768 0.000000 -0.486344
vn 0.873768 0.000000 -0.486344
vn 0.706589 0.000000 -0.707624
vn 0.706589 0.000000 -0.707624
vn 0.706589 0.000000 -0.707624
vn 0.706589 0.000000 -0.707624
vn 0.463379 0.000000 0.886160
vn 0.463379 0.000000 0.886160
vn 0.463379 0.000000 0.886160
vn 0.463379 0.000000 0.886160
vn 0.987600 0.000000 0.156991
vn 0.987600 0.000000 0.156991
vn 0.987600 0.000000 0.156991
vn 0.987600 0.000000 0.156991
vn 0.886298 0.000000 0.463116
vn 0.886298 0.000000 0.463116
vn 0.886298 0.000000 0.463116
vn 0.886298 0.000000 0.463116
vn 0.691910 0.000000 0.721984
vn 0.691910 0.000000 0.721984
vn 0.691910 0.000000 0.721984
vn 0.691910 0.000000 0.721984
vn 0.000008 1.000000 -0.000015
vn 0.000008 1.000000 -0.000015
vn 0.000008 1.000000 -0.000015
vn 0.000008 1.000000 -0.000015
vn 0.000025 1.000000 -0.000004
vn 0.000025 1.000000 -0.000004
vn 0.000025 1.000000 -0.000004
vn 0.000025 1.000000 -0.000004
vn 0.000111 1.000000 0.000114
vn 0.000111 1.000000 0.000114
vn 0.000111 1.000000 0.000114
vn 0.000111 1.000000 0.000114
vn -0.000176 1.000000 -0.000032
vn -0.000176 1.000000 -0.000032
vn -0.000176 1.000000 -0.000032
vn -0.000176 1.000000 -0.000032
vn 0.000008 1.000000 0.000015
vn 0.000008 1.000000 0.000015
vn 0.000008 1.000000 0.000015
vn 0.000008 1.000000 0.000015
vn 0.000025 1.000000 0.000004
vn 0.000025 1.000000 0.000004
vn 0.000025 1.000000 0.000004
vn 0.000025 1.000000 0.000004
vn 0.000123 1.000000 -0.000110
vn 0.000123 1.000000 -0.000110
vn 0.000123 1.000000 -0.000110
vn 0.000123 1.000000 -0.000110
vn -0.000184 1.000000 0.000020
vn -0.000184 1.000000 0.000020
vn -0.000184 1.000000 0.000020
vn -0.000184 1.000000 0.000020
vn -0.482668 0.000000 0.875803
vn -0.482668 0.000000 0.875803
vn -0.482668 0.000000 0.875803
vn -0.482668 0.000000 0.875803
vn -0.986426 0.000000 0.164207
vn -0.986426 0.000000 0.164207
vn -0.986426 0.000000 0.164207
vn -0.986426 0.000000 0.164207
vn -0.877252 0.000000 0.480030
vn -0.877252 0.000000 0.480030
vn -0.877252 0.000000 0.480030
vn -0.877252 0.000000 0.480030
vn -0.689459 0.000000 0.724325
vn -0.689459 0.000000 0.724325
vn -0.689459 0.000000 0.724325
vn -0.689459 0.000000 0.724325
vn -0.482668 0.000000 -0.875803
vn -0.482668 0.000000 -0.875803
vn -0.482668 0.000000 -0.875803
vn -0.482668 0.000000 -0.875803
vn -0.986426 0.000000 -0.164207
vn -0.986426 0.000000 -0.164207
vn -0.986426 0.000000 -0.164207
vn -0.986426 0.000000 -0.164207
vn -0.877252 0.000000 -0.480030
vn -0.877252 0.000000 -0.480030
vn -0.877252 0.000000 -0.480030
vn -0.877252 0.000000 -0.480030
vn -0.689459 0.000000 -0.724325
vn -0.689459 0.000000 -0.724325
vn -0.689459 0.000000 -0.724325
vn -0.689459 0.000000 -0.724325
vn 1.000000 0.000000 0.000003
vn 1.000000 0.000000 0.000003
vn 1.000000 0.000000 0.000003
vn 1.000000 0.000000 0.000003
vn 1.000000 0.000000 -0.000003
vn 1.000000 0.000000 -0.000003
vn 1.000000 0.000000 -0.000003
vn 1.000000 0.000000 -0.000003
s off
g polySurface364 polySurface361 bib_sol_polySurface359
usemtl initialShadingGroup
f 28/1/1 29/2/2 3/3/3 2/4/4
f 30/5/5 31/6/6 5/7/7 4/8/8
f 32/9/9 30/5/10 4/8/11 6/10/12
f 29/11/13 32/9/14 6/10/15 3/12/16
f 33/13/17 34/14/18 1/15/19 7/16/20
f 31/6/21 35/17/22 8/18/23 5/7/24
f 35/17/25 36/19/26 9/20/27 8/18/28
f 36/19/29 33/21/30 7/22/31 9/20/32
f 2/23/33 3/24/34 12/25/35 11/26/36
f 4/27/37 5/28/38 14/29/39 13/30/40
f 6/31/41 4/27/42 13/30/43 15/32/44
f 3/24/45 6/31/46 15/32/47 12/25/48
f 7/33/49 1/34/50 10/35/51 16/36/52
f 5/28/53 8/37/54 17/38/55 14/29/56
f 8/37/57 9/39/58 18/40/59 17/38/60
f 9/39/61 7/33/62 16/36/63 18/40/64
f 11/41/65 12/42/66 21/43/67 20/44/68
f 13/45/69 14/46/70 23/47/71 22/48/72
f 15/49/73 13/45/74 22/48/75 24/50/76
f 12/51/77 15/49/78 24/50/79 21/52/80
f 16/53/81 10/54/82 19/55/83 25/56/84
f 14/46/85 17/57/86 26/58/87 23/47/88
f 17/57/89 18/59/90 27/60/91 26/58/92
f 18/59/93 16/61/94 25/62/95 27/60/96
f 1/15/97 34/14/98 19/55/99 10/54/100
f 28/1/101 2/4/102 11/41/103 20/44/104
