# This file uses centimeters as units for non-parametric coordinates.

mtllib Mur_biblioteque_02.mtl
g default
v 0.000000 0.000000 0.000000
v 1.000000 -0.000000 0.000000
v 0.000000 4.000000 0.000000
v 1.000000 4.000000 0.000000
v 1.000000 4.000000 -0.250000
v 1.000000 -0.000000 -0.250000
v 0.000000 0.000000 -0.250000
v 0.000000 4.000000 -0.250000
vt 1.000000 0.000000
vt 1.000000 1.000000
vt 0.000000 1.000000
vt 0.000000 0.000000
vt 0.000000 0.000000
vt 1.000000 0.000000
vt 0.500000 0.000000
vt 0.500000 0.000000
vt 0.000000 0.000000
vt 1.000000 0.000000
vt 0.500000 0.000000
vt 1.000000 0.000000
vt 0.500000 0.000000
vt 0.000000 0.000000
vt 1.000000 0.000000
vt 0.000000 0.000000
vn -0.000000 0.000000 1.000000
vn -0.000000 0.000000 1.000000
vn -0.000000 0.000000 1.000000
vn -0.000000 0.000000 1.000000
vn 1.000000 0.000000 0.000000
vn 1.000000 0.000000 0.000000
vn 1.000000 0.000000 0.000000
vn 1.000000 0.000000 0.000000
vn -0.000000 -1.000000 0.000000
vn -0.000000 -1.000000 0.000000
vn -0.000000 -1.000000 0.000000
vn -0.000000 -1.000000 0.000000
vn -1.000000 0.000000 0.000000
vn -1.000000 0.000000 0.000000
vn -1.000000 0.000000 0.000000
vn -1.000000 0.000000 0.000000
vn 0.000000 1.000000 0.000000
vn 0.000000 1.000000 0.000000
vn 0.000000 1.000000 0.000000
vn 0.000000 1.000000 0.000000
vn 0.000000 0.000000 -1.000000
vn 0.000000 0.000000 -1.000000
vn 0.000000 0.000000 -1.000000
vn 0.000000 0.000000 -1.000000
s off
g polySurface46
usemtl initialShadingGroup
f 2/1/1 4/2/2 3/3/3 1/4/4
f 4/5/5 2/6/6 6/7/7 5/8/8
f 2/9/9 1/10/10 7/11/11 6/7/12
f 3/12/13 8/13/14 7/11/15 1/14/16
f 4/15/17 5/8/18 8/13/19 3/16/20
f 5/8/21 6/7/22 7/11/23 8/13/24
