# This file uses centimeters as units for non-parametric coordinates.

mtllib encadrement.mtl
g default
v -1.193105 -0.000000 0.487922
v -0.950342 -0.000000 0.487922
v -1.193105 4.000000 0.487922
v -0.940272 4.000000 0.487922
v -1.193105 4.000000 -0.512078
v -0.940272 4.000000 -0.512078
v -1.193105 -0.000000 -0.512078
v -0.950342 -0.000000 -0.512078
v -0.950342 3.026406 0.487922
v -1.193105 3.026406 0.487922
v -1.193105 3.026406 -0.512078
v -0.950342 3.026406 -0.512078
v 1.211676 -0.000000 0.487922
v 0.968913 -0.000000 0.487922
v 1.211676 4.000000 0.487922
v 0.958843 4.000000 0.487922
v 1.211676 4.000000 -0.512078
v 0.958843 4.000000 -0.512078
v 1.211676 -0.000000 -0.512078
v 0.968913 -0.000000 -0.512078
v 0.968913 3.026406 0.487922
v 1.211676 3.026406 0.487922
v 1.211676 3.026406 -0.512078
v 0.968913 3.026406 -0.512078
v -0.950342 -0.000000 -0.224466
v -0.950342 3.026406 -0.224466
v 0.968913 3.026406 -0.157019
v 0.968913 -0.000000 -0.157019
v -0.950342 -0.000000 0.132863
v -0.950342 3.026406 0.132863
v 0.968913 3.026406 0.132863
v 0.968913 -0.000000 0.132863
v -0.871484 -0.000000 -0.157019
v -0.871484 2.944732 -0.157019
v 0.890055 2.944732 -0.157019
v 0.890055 -0.000000 -0.157019
v -0.871484 -0.000000 0.132863
v -0.871484 2.944732 0.132863
v 0.890055 2.944732 0.132863
v 0.890055 -0.000000 0.132863
v 0.890055 -0.000000 -0.012078
v 0.890055 2.944732 -0.012078
v -0.871484 2.944732 -0.012078
v -0.871484 -0.000000 -0.012078
v 0.890055 -0.000000 -0.084549
v 0.890055 2.944732 -0.084549
v -0.871484 2.944732 -0.084549
v -0.871484 -0.000000 -0.084549
v 0.890055 -0.000000 -0.048314
v 0.890055 2.944732 -0.048314
v -0.871484 2.944732 -0.048314
v -0.871484 -0.000000 -0.048314
v 0.860451 0.000000 -0.084549
v 0.860451 2.896142 -0.084549
v 0.860451 0.000000 -0.048314
v 0.860451 2.896142 -0.048314
v -0.841880 2.896142 -0.084549
v -0.841880 2.896142 -0.048314
v -0.841880 0.000000 -0.084549
v -0.841880 0.000000 -0.048314
vt 0.375000 0.000000
vt 0.625000 0.000000
vt 0.375000 0.250000
vt 0.625000 0.250000
vt 0.375000 0.500000
vt 0.625000 0.500000
vt 0.375000 0.750000
vt 0.625000 0.750000
vt 0.875000 0.000000
vt 0.125000 0.000000
vt 0.125000 0.250000
vt 0.625000 0.231778
vt 0.375000 0.231778
vt 0.125000 0.231778
vt 0.375000 0.518222
vt 0.625000 0.518222
vt 0.875000 0.231778
vt 0.375000 0.000000
vt 0.625000 0.000000
vt 0.625000 0.231778
vt 0.375000 0.231778
vt 0.375000 0.250000
vt 0.625000 0.250000
vt 0.625000 0.500000
vt 0.375000 0.500000
vt 0.375000 0.518222
vt 0.625000 0.518222
vt 0.625000 0.750000
vt 0.375000 0.750000
vt 0.875000 0.000000
vt 0.875000 0.231778
vt 0.125000 0.000000
vt 0.125000 0.231778
vt 0.125000 0.250000
vt 0.781250 0.000000
vt 0.781250 0.231778
vt 0.781250 0.231778
vt 0.781250 0.000000
vt 0.718750 0.000000
vt 0.718750 0.231778
vt 0.718750 0.231778
vt 0.718750 0.000000
vt 0.000000 0.000000
vt 1.000000 0.000000
vt 0.500000 1.000000
vt 0.000000 1.000000
vt 0.000000 0.000000
vt 1.000000 0.000000
vt 0.500000 1.000000
vt 0.000000 0.000000
vt 1.000000 0.000000
vt 1.000000 1.000000
vt 0.000000 0.000000
vt 1.000000 0.000000
vt 1.000000 1.000000
vt 0.500000 1.000000
vt 0.000000 0.000000
vt 1.000000 0.000000
vt 0.500000 1.000000
vt 0.000000 0.000000
vt 1.000000 0.000000
vt 0.000000 1.000000
vt 0.500000 1.000000
vt 0.500000 1.000000
vt 0.500000 1.000000
vt 0.500000 1.000000
vt 0.750000 1.000000
vt 0.500000 1.000000
vt 0.500000 1.000000
vt 0.250000 1.000000
vt 0.625000 1.000000
vt 0.500000 1.000000
vt 0.500000 1.000000
vt 0.375000 1.000000
vt 0.500000 1.000000
vt 0.750000 1.000000
vt 0.625000 1.000000
vt 0.500000 1.000000
vt 0.500000 1.000000
vt 0.500000 1.000000
vt 0.250000 1.000000
vt 0.375000 1.000000
vn 0.000000 0.000000 1.000000
vn 0.000000 0.000000 1.000000
vn 0.000000 0.000000 1.000000
vn 0.000000 0.000000 1.000000
vn 0.000000 0.000000 -1.000000
vn 0.000000 0.000000 -1.000000
vn 0.000000 0.000000 -1.000000
vn 0.000000 0.000000 -1.000000
vn 1.000000 0.000000 0.000000
vn 1.000000 0.000000 0.000000
vn 1.000000 0.000000 0.000000
vn 1.000000 0.000000 0.000000
vn -1.000000 0.000000 0.000000
vn -1.000000 0.000000 0.000000
vn -1.000000 0.000000 0.000000
vn -1.000000 0.000000 0.000000
vn 0.000000 0.000000 1.000000
vn 0.000000 0.000000 1.000000
vn -1.000000 0.000000 0.000000
vn -1.000000 0.000000 0.000000
vn 0.000000 0.000000 -1.000000
vn 0.000000 0.000000 -1.000000
vn 0.000000 0.000000 1.000000
vn 0.000000 0.000000 1.000000
vn 0.000000 0.000000 1.000000
vn 0.000000 0.000000 1.000000
vn 0.000000 0.000000 -1.000000
vn 0.000000 0.000000 -1.000000
vn 0.000000 0.000000 -1.000000
vn 0.000000 0.000000 -1.000000
vn -1.000000 0.000000 0.000000
vn -1.000000 0.000000 0.000000
vn -1.000000 0.000000 0.000000
vn -1.000000 0.000000 0.000000
vn 1.000000 0.000000 0.000000
vn 1.000000 0.000000 0.000000
vn 1.000000 0.000000 0.000000
vn 1.000000 0.000000 0.000000
vn 0.000000 0.000000 1.000000
vn 0.000000 0.000000 1.000000
vn 1.000000 0.000000 0.000000
vn 1.000000 0.000000 0.000000
vn 0.000000 0.000000 -1.000000
vn 0.000000 0.000000 -1.000000
vn 0.000000 0.000000 1.000000
vn 0.000000 0.000000 1.000000
vn 0.000000 0.000000 1.000000
vn 0.000000 0.000000 1.000000
vn 0.000000 -1.000000 0.000000
vn 0.000000 -1.000000 0.000000
vn 0.000000 -1.000000 0.000000
vn 0.000000 -1.000000 0.000000
vn 0.000000 0.000000 -1.000000
vn 0.000000 0.000000 -1.000000
vn 0.000000 0.000000 -1.000000
vn 0.000000 0.000000 -1.000000
vn 0.000000 1.000000 0.000000
vn 0.000000 1.000000 0.000000
vn 0.000000 1.000000 0.000000
vn 0.000000 1.000000 0.000000
vn 0.000000 1.000000 0.000000
vn 0.000000 1.000000 0.000000
vn 0.000000 1.000000 0.000000
vn 0.000000 1.000000 0.000000
vn 0.000000 1.000000 0.000000
vn 0.000000 1.000000 0.000000
vn 0.000000 1.000000 0.000000
vn 0.000000 1.000000 0.000000
vn 1.000000 0.000000 0.000000
vn 1.000000 0.000000 0.000000
vn 1.000000 0.000000 0.000000
vn 1.000000 0.000000 0.000000
vn 0.000000 -1.000000 0.000000
vn 0.000000 -1.000000 0.000000
vn 0.000000 -1.000000 0.000000
vn 0.000000 -1.000000 0.000000
vn -1.000000 0.000000 0.000000
vn -1.000000 0.000000 0.000000
vn -1.000000 0.000000 0.000000
vn -1.000000 0.000000 0.000000
vn 0.649981 0.000000 -0.759951
vn 0.649981 0.000000 -0.759951
vn 0.649981 0.000000 -0.759951
vn 0.649981 0.000000 -0.759951
vn 0.016934 -0.381596 -0.924174
vn 0.016934 -0.381596 -0.924174
vn 0.016934 -0.381596 -0.924174
vn 0.016934 -0.381596 -0.924174
vn 0.000001 0.000000 -1.000000
vn 0.000001 0.000000 -1.000000
vn 0.000001 0.000000 -1.000000
vn 0.000001 0.000000 -1.000000
vn 0.000002 0.000000 1.000000
vn 0.000002 0.000000 1.000000
vn 0.000002 0.000000 1.000000
vn 0.000002 0.000000 1.000000
vn 0.000000 0.000000 1.000000
vn 0.000000 0.000000 1.000000
vn 0.000000 0.000000 1.000000
vn 0.000000 0.000000 1.000000
vn 0.000000 0.000000 1.000000
vn 0.000000 0.000000 1.000000
vn 0.000000 0.000000 1.000000
vn 0.000000 0.000000 1.000000
vn -1.000000 0.000000 0.000000
vn -1.000000 0.000000 0.000000
vn -1.000000 0.000000 0.000000
vn -1.000000 0.000000 0.000000
vn 1.000000 0.000000 0.000000
vn 1.000000 0.000000 0.000000
vn 1.000000 0.000000 0.000000
vn 1.000000 0.000000 0.000000
vn 0.000000 -1.000000 0.000000
vn 0.000000 -1.000000 0.000000
vn 0.000000 -1.000000 0.000000
vn 0.000000 -1.000000 0.000000
vn -1.000000 0.000000 0.000000
vn -1.000000 0.000000 0.000000
vn -1.000000 0.000000 0.000000
vn -1.000000 0.000000 0.000000
vn 0.000000 -1.000000 0.000000
vn 0.000000 -1.000000 0.000000
vn 0.000000 -1.000000 0.000000
vn 0.000000 -1.000000 0.000000
vn 1.000000 0.000000 0.000000
vn 1.000000 0.000000 0.000000
vn 1.000000 0.000000 0.000000
vn 1.000000 0.000000 0.000000
vn -1.000000 0.000000 0.000000
vn -1.000000 0.000000 0.000000
vn -1.000000 0.000000 0.000000
vn -1.000000 0.000000 0.000000
vn 0.000000 -1.000000 0.000000
vn 0.000000 -1.000000 0.000000
vn 0.000000 -1.000000 0.000000
vn 0.000000 -1.000000 0.000000
vn 1.000000 0.000000 0.000000
vn 1.000000 0.000000 0.000000
vn 1.000000 0.000000 0.000000
vn 1.000000 0.000000 0.000000
vn -1.000000 0.000000 0.000000
vn -1.000000 0.000000 0.000000
vn 0.000000 -1.000000 0.000000
vn 0.000000 -1.000000 0.000000
vn 1.000000 0.000000 0.000000
vn 1.000000 0.000000 0.000000
vn -0.000000 0.000000 -1.000000
vn -0.000000 0.000000 -1.000000
vn -0.000000 0.000000 -1.000000
vn -0.000000 0.000000 -1.000000
vn -0.000016 -1.000000 0.000000
vn -0.000016 -1.000000 0.000000
vn -0.000016 -1.000000 0.000000
vn -0.000016 -1.000000 0.000000
vn -0.000002 0.000000 1.000000
vn -0.000002 0.000000 1.000000
vn -0.000002 0.000000 1.000000
vn -0.000002 0.000000 1.000000
vn 0.000000 0.000000 -1.000000
vn 0.000000 0.000000 -1.000000
vn 0.000000 0.000000 -1.000000
vn 0.000000 0.000000 -1.000000
vn 0.000000 0.000000 1.000000
vn 0.000000 0.000000 1.000000
vn 0.000000 0.000000 1.000000
vn 0.000000 0.000000 1.000000
vn -0.000002 0.000000 -1.000000
vn -0.000002 0.000000 -1.000000
vn -0.000002 0.000000 -1.000000
vn -0.000002 0.000000 -1.000000
vn -0.000003 0.000000 1.000000
vn -0.000003 0.000000 1.000000
vn -0.000003 0.000000 1.000000
vn -0.000003 0.000000 1.000000
vn 0.000016 -1.000000 0.000000
vn 0.000016 -1.000000 0.000000
vn 0.000016 -1.000000 0.000000
vn 0.000016 -1.000000 0.000000
s 1
f 1/1/1 2/2/2 9/12/3 10/13/4
s 2
f 11/15/5 12/16/6 8/8/7 7/7/8
s off
f 9/12/9 2/2/10 29/39/11 30/40/12
s 3
f 11/14/13 7/10/14 1/1/15 10/13/16
s 1
f 10/13/4 9/12/3 4/4/17 3/3/18
s 3
f 3/3/19 5/11/20 11/14/13 10/13/16
s 2
f 5/5/21 6/6/22 12/16/6 11/15/5
s 4
f 13/18/23 22/21/24 21/20/25 14/19/26
s 5
f 23/26/27 19/29/28 20/28/29 24/27/30
s off
f 32/42/31 14/19/32 21/20/33 31/41/34
s 6
f 23/33/35 22/21/36 13/18/37 19/32/38
s 4
f 22/21/24 15/22/39 16/23/40 21/20/25
s 6
f 17/34/41 15/22/42 22/21/36 23/33/35
s 5
f 17/25/43 23/26/27 24/27/30 18/24/44
s off
f 4/4/45 9/12/46 21/20/47 16/23/48
f 21/20/49 9/12/50 30/40/51 31/41/52
f 12/16/53 6/6/54 18/24/55 24/27/56
f 3/3/57 4/4/58 6/6/59 5/5/60
f 4/4/61 16/23/62 18/24/63 6/6/64
f 16/23/65 15/22/66 17/25/67 18/24/68
f 26/36/69 25/35/70 8/9/71 12/17/72
f 27/37/73 26/36/74 12/17/75 24/31/76
f 20/30/77 28/38/78 27/37/79 24/31/80
f 25/43/81 26/44/82 34/45/83 33/46/84
f 26/47/85 27/48/86 35/49/87 34/45/88
f 27/50/89 28/51/90 36/52/91 35/49/92
f 30/53/93 29/54/94 37/55/95 38/56/96
f 31/57/97 30/58/98 38/56/99 39/59/100
f 32/60/101 31/61/102 39/59/103 40/62/104
f 35/49/105 36/52/106 45/67/107 46/68/108
f 33/46/109 34/45/110 47/69/111 48/70/112
f 34/45/113 35/49/114 46/68/115 47/69/116
s 7
f 42/64/117 41/63/118 40/62/119 39/59/120
s 8
f 43/65/121 42/64/122 39/59/123 38/56/124
s 9
f 44/66/125 43/65/126 38/56/127 37/55/128
s off
f 54/75/129 53/76/130 55/77/131 56/78/132
f 57/79/133 54/75/134 56/78/135 58/80/136
f 59/81/137 57/79/138 58/80/139 60/82/140
s 7
f 50/72/141 49/71/142 41/63/118 42/64/117
s 8
f 51/73/143 50/72/144 42/64/122 43/65/121
s 9
f 52/74/145 51/73/146 43/65/126 44/66/125
s off
f 46/68/147 45/67/148 53/76/149 54/75/150
f 45/67/151 49/71/152 55/77/153 53/76/154
f 49/71/155 50/72/156 56/78/157 55/77/158
f 47/69/159 46/68/160 54/75/161 57/79/162
f 50/72/163 51/73/164 58/80/165 56/78/166
f 48/70/167 47/69/168 57/79/169 59/81/170
f 51/73/171 52/74/172 60/82/173 58/80/174
f 52/74/175 48/70/176 59/81/177 60/82/178
