%YAML 1.1
%TAG !u! tag:unity3d.com,2011:
--- !u!114 &11400000
MonoBehaviour:
  m_ObjectHideFlags: 0
  m_PrefabParentObject: {fileID: 0}
  m_PrefabInternal: {fileID: 0}
  m_GameObject: {fileID: 0}
  m_Enabled: 1
  m_EditorHideFlags: 0
  m_Script: {fileID: 323110133, guid: 09c9b883b79ef864a99683bb36c5776d, type: 3}
  m_Name: CHFlightStickPro
  m_EditorClassIdentifier: 
  controllerName: CH FlightStick Pro
  editorControllerName: 
  description: 
  controllerGuid: 672b88ce-f98b-4535-9603-09d2f4e530ac
  templateGuids:
  - 061a00cf-d8c2-4f8d-8cb5-a15a010bc53e
  hideInLists: 0
  elementIdentifiers:
  - _id: 0
    _name: Stick X
    _elementType: 0
    _compoundElementType: 0
  - _id: 1
    _name: Stick Y
    _elementType: 0
    _compoundElementType: 0
  - _id: 2
    _name: Dial
    _elementType: 0
    _compoundElementType: 0
  - _id: 3
    _name: Trigger
    _elementType: 1
    _compoundElementType: 0
  - _id: 4
    _name: Left Button
    _elementType: 1
    _compoundElementType: 0
  - _id: 5
    _name: Right Button
    _elementType: 1
    _compoundElementType: 0
  - _id: 6
    _name: Center Button
    _elementType: 1
    _compoundElementType: 0
  - _id: 7
    _name: POV Up
    _elementType: 1
    _compoundElementType: 11
  - _id: 8
    _name: POV Up-Right
    _elementType: 1
    _compoundElementType: 11
  - _id: 9
    _name: POV Right
    _elementType: 1
    _compoundElementType: 11
  - _id: 10
    _name: POV Down-Right
    _elementType: 1
    _compoundElementType: 11
  - _id: 11
    _name: POV Down
    _elementType: 1
    _compoundElementType: 11
  - _id: 12
    _name: POV Down-Left
    _elementType: 1
    _compoundElementType: 11
  - _id: 13
    _name: POV Left
    _elementType: 1
    _compoundElementType: 11
  - _id: 14
    _name: POV Up-Left
    _elementType: 1
    _compoundElementType: 11
  - _id: 15
    _name: POV Hat
    _elementType: 100
    _compoundElementType: 11
  - _id: 17
    _name: Stick
    _elementType: 100
    _compoundElementType: 0
  compoundElements:
  - type: 0
    elementIdentifier: 17
    componentElementIdentifiers: 0000000001000000
  - type: 11
    elementIdentifier: 15
    componentElementIdentifiers: 07000000090000000b0000000d000000080000000a0000000c0000000e000000
  directInput:
    description: 
    matchingCriteria:
      axisCount: 0
      buttonCount: 0
      disabled: 0
      tag: 
      hatCount: 0
      productName_useRegex: 0
      productName: []
      productGUID: []
      productId: 
      deviceType: 0
    elements:
      axes: []
      buttons: []
    variants: []
  rawInput:
    description: 
    matchingCriteria:
      axisCount: 3
      buttonCount: 4
      disabled: 0
      tag: 
      hatCount: 1
      productName_useRegex: 0
      productName:
      - CH FLIGHTSTICK PRO
      productGUID:
      - 00f6068e
      productId: f6000000
      deviceType: 20
    elements:
      axes:
      - customCalculation: {fileID: 0}
        customCalculationSourceData: []
        elementIdentifier: 0
        sourceType: 1
        sourceAxis: 1
        sourceAxisRange: 0
        invert: 0
        axisDeadZone: 0.1
        calibrateAxis: 0
        axisZero: 0
        axisMin: 0
        axisMax: 0
        axisInfo:
          _dataFormat: 0
          _excludeFromPolling: 0
        sourceButton: 0
        buttonAxisContribution: 0
        sourceHat: 0
        sourceHatDirection: 0
        sourceHatRange: 0
        sourceOtherAxis: 0
      - customCalculation: {fileID: 0}
        customCalculationSourceData: []
        elementIdentifier: 1
        sourceType: 1
        sourceAxis: 2
        sourceAxisRange: 0
        invert: 1
        axisDeadZone: 0.1
        calibrateAxis: 0
        axisZero: 0
        axisMin: 0
        axisMax: 0
        axisInfo:
          _dataFormat: 0
          _excludeFromPolling: 0
        sourceButton: 0
        buttonAxisContribution: 0
        sourceHat: 0
        sourceHatDirection: 0
        sourceHatRange: 0
        sourceOtherAxis: 0
      - customCalculation: {fileID: 0}
        customCalculationSourceData: []
        elementIdentifier: 2
        sourceType: 1
        sourceAxis: 3
        sourceAxisRange: 0
        invert: 1
        axisDeadZone: 0.1
        calibrateAxis: 0
        axisZero: 0
        axisMin: 0
        axisMax: 0
        axisInfo:
          _dataFormat: 0
          _excludeFromPolling: 0
        sourceButton: 0
        buttonAxisContribution: 0
        sourceHat: 0
        sourceHatDirection: 0
        sourceHatRange: 0
        sourceOtherAxis: 0
      buttons:
      - customCalculation: {fileID: 0}
        customCalculationSourceData: []
        elementIdentifier: 3
        sourceType: 0
        sourceButton: 0
        sourceAxis: 0
        sourceAxisPole: 0
        axisDeadZone: 0
        sourceHat: 0
        sourceHatType: 0
        sourceHatDirection: 0
        requireMultipleButtons: 0
        requiredButtons: 
        ignoreIfButtonsActive: 0
        ignoreIfButtonsActiveButtons: 
        buttonInfo:
          _excludeFromPolling: 0
          _isPressureSensitive: 0
        sourceOtherAxis: 0
      - customCalculation: {fileID: 0}
        customCalculationSourceData: []
        elementIdentifier: 4
        sourceType: 0
        sourceButton: 1
        sourceAxis: 0
        sourceAxisPole: 0
        axisDeadZone: 0
        sourceHat: 0
        sourceHatType: 0
        sourceHatDirection: 0
        requireMultipleButtons: 0
        requiredButtons: 
        ignoreIfButtonsActive: 0
        ignoreIfButtonsActiveButtons: 
        buttonInfo:
          _excludeFromPolling: 0
          _isPressureSensitive: 0
        sourceOtherAxis: 0
      - customCalculation: {fileID: 0}
        customCalculationSourceData: []
        elementIdentifier: 5
        sourceType: 0
        sourceButton: 2
        sourceAxis: 0
        sourceAxisPole: 0
        axisDeadZone: 0
        sourceHat: 0
        sourceHatType: 0
        sourceHatDirection: 0
        requireMultipleButtons: 0
        requiredButtons: 
        ignoreIfButtonsActive: 0
        ignoreIfButtonsActiveButtons: 
        buttonInfo:
          _excludeFromPolling: 0
          _isPressureSensitive: 0
        sourceOtherAxis: 0
      - customCalculation: {fileID: 0}
        customCalculationSourceData: []
        elementIdentifier: 6
        sourceType: 0
        sourceButton: 3
        sourceAxis: 0
        sourceAxisPole: 0
        axisDeadZone: 0
        sourceHat: 0
        sourceHatType: 0
        sourceHatDirection: 0
        requireMultipleButtons: 0
        requiredButtons: 
        ignoreIfButtonsActive: 0
        ignoreIfButtonsActiveButtons: 
        buttonInfo:
          _excludeFromPolling: 0
          _isPressureSensitive: 0
        sourceOtherAxis: 0
      - customCalculation: {fileID: 0}
        customCalculationSourceData: []
        elementIdentifier: 7
        sourceType: 2
        sourceButton: 3
        sourceAxis: 0
        sourceAxisPole: 0
        axisDeadZone: 0
        sourceHat: 0
        sourceHatType: 1
        sourceHatDirection: 0
        requireMultipleButtons: 0
        requiredButtons: 
        ignoreIfButtonsActive: 0
        ignoreIfButtonsActiveButtons: 
        buttonInfo:
          _excludeFromPolling: 0
          _isPressureSensitive: 0
        sourceOtherAxis: 0
      - customCalculation: {fileID: 0}
        customCalculationSourceData: []
        elementIdentifier: 8
        sourceType: 2
        sourceButton: 3
        sourceAxis: 0
        sourceAxisPole: 0
        axisDeadZone: 0
        sourceHat: 0
        sourceHatType: 1
        sourceHatDirection: 4
        requireMultipleButtons: 0
        requiredButtons: 
        ignoreIfButtonsActive: 0
        ignoreIfButtonsActiveButtons: 
        buttonInfo:
          _excludeFromPolling: 0
          _isPressureSensitive: 0
        sourceOtherAxis: 0
      - customCalculation: {fileID: 0}
        customCalculationSourceData: []
        elementIdentifier: 9
        sourceType: 2
        sourceButton: 3
        sourceAxis: 0
        sourceAxisPole: 0
        axisDeadZone: 0
        sourceHat: 0
        sourceHatType: 1
        sourceHatDirection: 1
        requireMultipleButtons: 0
        requiredButtons: 
        ignoreIfButtonsActive: 0
        ignoreIfButtonsActiveButtons: 
        buttonInfo:
          _excludeFromPolling: 0
          _isPressureSensitive: 0
        sourceOtherAxis: 0
      - customCalculation: {fileID: 0}
        customCalculationSourceData: []
        elementIdentifier: 10
        sourceType: 2
        sourceButton: 3
        sourceAxis: 0
        sourceAxisPole: 0
        axisDeadZone: 0
        sourceHat: 0
        sourceHatType: 1
        sourceHatDirection: 5
        requireMultipleButtons: 0
        requiredButtons: 
        ignoreIfButtonsActive: 0
        ignoreIfButtonsActiveButtons: 
        buttonInfo:
          _excludeFromPolling: 0
          _isPressureSensitive: 0
        sourceOtherAxis: 0
      - customCalculation: {fileID: 0}
        customCalculationSourceData: []
        elementIdentifier: 11
        sourceType: 2
        sourceButton: 3
        sourceAxis: 0
        sourceAxisPole: 0
        axisDeadZone: 0
        sourceHat: 0
        sourceHatType: 1
        sourceHatDirection: 2
        requireMultipleButtons: 0
        requiredButtons: 
        ignoreIfButtonsActive: 0
        ignoreIfButtonsActiveButtons: 
        buttonInfo:
          _excludeFromPolling: 0
          _isPressureSensitive: 0
        sourceOtherAxis: 0
      - customCalculation: {fileID: 0}
        customCalculationSourceData: []
        elementIdentifier: 12
        sourceType: 2
        sourceButton: 3
        sourceAxis: 0
        sourceAxisPole: 0
        axisDeadZone: 0
        sourceHat: 0
        sourceHatType: 1
        sourceHatDirection: 6
        requireMultipleButtons: 0
        requiredButtons: 
        ignoreIfButtonsActive: 0
        ignoreIfButtonsActiveButtons: 
        buttonInfo:
          _excludeFromPolling: 0
          _isPressureSensitive: 0
        sourceOtherAxis: 0
      - customCalculation: {fileID: 0}
        customCalculationSourceData: []
        elementIdentifier: 13
        sourceType: 2
        sourceButton: 3
        sourceAxis: 0
        sourceAxisPole: 0
        axisDeadZone: 0
        sourceHat: 0
        sourceHatType: 1
        sourceHatDirection: 3
        requireMultipleButtons: 0
        requiredButtons: 
        ignoreIfButtonsActive: 0
        ignoreIfButtonsActiveButtons: 
        buttonInfo:
          _excludeFromPolling: 0
          _isPressureSensitive: 0
        sourceOtherAxis: 0
      - customCalculation: {fileID: 0}
        customCalculationSourceData: []
        elementIdentifier: 14
        sourceType: 2
        sourceButton: 3
        sourceAxis: 0
        sourceAxisPole: 0
        axisDeadZone: 0
        sourceHat: 0
        sourceHatType: 1
        sourceHatDirection: 7
        requireMultipleButtons: 0
        requiredButtons: 
        ignoreIfButtonsActive: 0
        ignoreIfButtonsActiveButtons: 
        buttonInfo:
          _excludeFromPolling: 0
          _isPressureSensitive: 0
        sourceOtherAxis: 0
    variants: []
  xInput:
    description: 
    matchingCriteria:
      axisCount: 0
      buttonCount: 0
      disabled: 0
      tag: 
      subType: 
    elements:
      axes: []
      buttons: []
    variants: []
  osx:
    description: 
    matchingCriteria:
      axisCount: 3
      buttonCount: 4
      disabled: 0
      tag: 
      hatCount: 1
      productName_useRegex: 0
      productName:
      - CH FLIGHTSTICK PRO
      manufacturer:
      - CH PRODUCTS
      productId: f6000000
      vendorId: 8e060000
    elements:
      axes:
      - elementIdentifier: 0
        sourceType: 1
        sourceStick: 0
        sourceAxis: 1
        sourceOtherAxis: 0
        sourceAxisRange: 0
        invert: 0
        axisDeadZone: 0.1
        calibrateAxis: 0
        axisZero: 0
        axisMin: 0
        axisMax: 0
        axisInfo:
          _dataFormat: 0
          _excludeFromPolling: 0
        sourceButton: 0
        buttonAxisContribution: 0
        sourceHat: 0
        sourceHatDirection: 0
        sourceHatRange: 0
      - elementIdentifier: 1
        sourceType: 1
        sourceStick: 0
        sourceAxis: 2
        sourceOtherAxis: 0
        sourceAxisRange: 0
        invert: 1
        axisDeadZone: 0.1
        calibrateAxis: 0
        axisZero: 0
        axisMin: 0
        axisMax: 0
        axisInfo:
          _dataFormat: 0
          _excludeFromPolling: 0
        sourceButton: 0
        buttonAxisContribution: 0
        sourceHat: 0
        sourceHatDirection: 0
        sourceHatRange: 0
      - elementIdentifier: 2
        sourceType: 1
        sourceStick: 0
        sourceAxis: 3
        sourceOtherAxis: 0
        sourceAxisRange: 0
        invert: 1
        axisDeadZone: 0.1
        calibrateAxis: 0
        axisZero: 0
        axisMin: 0
        axisMax: 0
        axisInfo:
          _dataFormat: 0
          _excludeFromPolling: 0
        sourceButton: 0
        buttonAxisContribution: 0
        sourceHat: 0
        sourceHatDirection: 0
        sourceHatRange: 0
      buttons:
      - elementIdentifier: 3
        sourceType: 0
        sourceButton: 0
        sourceStick: 0
        sourceAxis: 0
        sourceOtherAxis: 0
        sourceAxisPole: 0
        axisDeadZone: 0
        sourceHat: 0
        sourceHatType: 0
        sourceHatDirection: 0
        requireMultipleButtons: 0
        requiredButtons: 
        ignoreIfButtonsActive: 0
        ignoreIfButtonsActiveButtons: 
        buttonInfo:
          _excludeFromPolling: 0
          _isPressureSensitive: 0
      - elementIdentifier: 4
        sourceType: 0
        sourceButton: 1
        sourceStick: 0
        sourceAxis: 0
        sourceOtherAxis: 0
        sourceAxisPole: 0
        axisDeadZone: 0
        sourceHat: 0
        sourceHatType: 0
        sourceHatDirection: 0
        requireMultipleButtons: 0
        requiredButtons: 
        ignoreIfButtonsActive: 0
        ignoreIfButtonsActiveButtons: 
        buttonInfo:
          _excludeFromPolling: 0
          _isPressureSensitive: 0
      - elementIdentifier: 5
        sourceType: 0
        sourceButton: 2
        sourceStick: 0
        sourceAxis: 0
        sourceOtherAxis: 0
        sourceAxisPole: 0
        axisDeadZone: 0
        sourceHat: 0
        sourceHatType: 0
        sourceHatDirection: 0
        requireMultipleButtons: 0
        requiredButtons: 
        ignoreIfButtonsActive: 0
        ignoreIfButtonsActiveButtons: 
        buttonInfo:
          _excludeFromPolling: 0
          _isPressureSensitive: 0
      - elementIdentifier: 6
        sourceType: 0
        sourceButton: 3
        sourceStick: 0
        sourceAxis: 0
        sourceOtherAxis: 0
        sourceAxisPole: 0
        axisDeadZone: 0
        sourceHat: 0
        sourceHatType: 0
        sourceHatDirection: 0
        requireMultipleButtons: 0
        requiredButtons: 
        ignoreIfButtonsActive: 0
        ignoreIfButtonsActiveButtons: 
        buttonInfo:
          _excludeFromPolling: 0
          _isPressureSensitive: 0
      - elementIdentifier: 7
        sourceType: 2
        sourceButton: 3
        sourceStick: 0
        sourceAxis: 0
        sourceOtherAxis: 0
        sourceAxisPole: 0
        axisDeadZone: 0
        sourceHat: 0
        sourceHatType: 1
        sourceHatDirection: 0
        requireMultipleButtons: 0
        requiredButtons: 
        ignoreIfButtonsActive: 0
        ignoreIfButtonsActiveButtons: 
        buttonInfo:
          _excludeFromPolling: 0
          _isPressureSensitive: 0
      - elementIdentifier: 8
        sourceType: 2
        sourceButton: 3
        sourceStick: 0
        sourceAxis: 0
        sourceOtherAxis: 0
        sourceAxisPole: 0
        axisDeadZone: 0
        sourceHat: 0
        sourceHatType: 1
        sourceHatDirection: 4
        requireMultipleButtons: 0
        requiredButtons: 
        ignoreIfButtonsActive: 0
        ignoreIfButtonsActiveButtons: 
        buttonInfo:
          _excludeFromPolling: 0
          _isPressureSensitive: 0
      - elementIdentifier: 9
        sourceType: 2
        sourceButton: 3
        sourceStick: 0
        sourceAxis: 0
        sourceOtherAxis: 0
        sourceAxisPole: 0
        axisDeadZone: 0
        sourceHat: 0
        sourceHatType: 1
        sourceHatDirection: 1
        requireMultipleButtons: 0
        requiredButtons: 
        ignoreIfButtonsActive: 0
        ignoreIfButtonsActiveButtons: 
        buttonInfo:
          _excludeFromPolling: 0
          _isPressureSensitive: 0
      - elementIdentifier: 10
        sourceType: 2
        sourceButton: 3
        sourceStick: 0
        sourceAxis: 0
        sourceOtherAxis: 0
        sourceAxisPole: 0
        axisDeadZone: 0
        sourceHat: 0
        sourceHatType: 1
        sourceHatDirection: 5
        requireMultipleButtons: 0
        requiredButtons: 
        ignoreIfButtonsActive: 0
        ignoreIfButtonsActiveButtons: 
        buttonInfo:
          _excludeFromPolling: 0
          _isPressureSensitive: 0
      - elementIdentifier: 11
        sourceType: 2
        sourceButton: 3
        sourceStick: 0
        sourceAxis: 0
        sourceOtherAxis: 0
        sourceAxisPole: 0
        axisDeadZone: 0
        sourceHat: 0
        sourceHatType: 1
        sourceHatDirection: 2
        requireMultipleButtons: 0
        requiredButtons: 
        ignoreIfButtonsActive: 0
        ignoreIfButtonsActiveButtons: 
        buttonInfo:
          _excludeFromPolling: 0
          _isPressureSensitive: 0
      - elementIdentifier: 12
        sourceType: 2
        sourceButton: 3
        sourceStick: 0
        sourceAxis: 0
        sourceOtherAxis: 0
        sourceAxisPole: 0
        axisDeadZone: 0
        sourceHat: 0
        sourceHatType: 1
        sourceHatDirection: 6
        requireMultipleButtons: 0
        requiredButtons: 
        ignoreIfButtonsActive: 0
        ignoreIfButtonsActiveButtons: 
        buttonInfo:
          _excludeFromPolling: 0
          _isPressureSensitive: 0
      - elementIdentifier: 13
        sourceType: 2
        sourceButton: 3
        sourceStick: 0
        sourceAxis: 0
        sourceOtherAxis: 0
        sourceAxisPole: 0
        axisDeadZone: 0
        sourceHat: 0
        sourceHatType: 1
        sourceHatDirection: 3
        requireMultipleButtons: 0
        requiredButtons: 
        ignoreIfButtonsActive: 0
        ignoreIfButtonsActiveButtons: 
        buttonInfo:
          _excludeFromPolling: 0
          _isPressureSensitive: 0
      - elementIdentifier: 14
        sourceType: 2
        sourceButton: 3
        sourceStick: 0
        sourceAxis: 0
        sourceOtherAxis: 0
        sourceAxisPole: 0
        axisDeadZone: 0
        sourceHat: 0
        sourceHatType: 1
        sourceHatDirection: 7
        requireMultipleButtons: 0
        requiredButtons: 
        ignoreIfButtonsActive: 0
        ignoreIfButtonsActiveButtons: 
        buttonInfo:
          _excludeFromPolling: 0
          _isPressureSensitive: 0
    variants: []
  linux:
    description: 
    matchingCriteria:
      axisCount: 3
      buttonCount: 4
      disabled: 0
      tag: 
      hatCount: 1
      manufacturer_useRegex: 0
      productName_useRegex: 0
      systemName_useRegex: 0
      manufacturer:
      - CH PRODUCTS
      productName:
      - CH FLIGHTSTICK PRO
      systemName:
      - CH PRODUCTS CH FLIGHTSTICK PRO
      productGUID:
      - 00f6068e
    elements:
      axes:
      - elementIdentifier: 0
        sourceType: 1
        sourceAxis: 0
        sourceAxisRange: 0
        invert: 0
        axisDeadZone: 0.1
        calibrateAxis: 0
        axisZero: 0
        axisMin: 0
        axisMax: 0
        axisInfo:
          _dataFormat: 0
          _excludeFromPolling: 0
        sourceButton: 0
        buttonAxisContribution: 0
        sourceHat: 0
        sourceHatDirection: 0
        sourceHatRange: 0
      - elementIdentifier: 1
        sourceType: 1
        sourceAxis: 1
        sourceAxisRange: 0
        invert: 1
        axisDeadZone: 0.1
        calibrateAxis: 0
        axisZero: 0
        axisMin: 0
        axisMax: 0
        axisInfo:
          _dataFormat: 0
          _excludeFromPolling: 0
        sourceButton: 0
        buttonAxisContribution: 0
        sourceHat: 0
        sourceHatDirection: 0
        sourceHatRange: 0
      - elementIdentifier: 2
        sourceType: 1
        sourceAxis: 2
        sourceAxisRange: 0
        invert: 1
        axisDeadZone: 0.1
        calibrateAxis: 0
        axisZero: 0
        axisMin: 0
        axisMax: 0
        axisInfo:
          _dataFormat: 0
          _excludeFromPolling: 0
        sourceButton: 0
        buttonAxisContribution: 0
        sourceHat: 0
        sourceHatDirection: 0
        sourceHatRange: 0
      buttons:
      - elementIdentifier: 3
        sourceType: 0
        sourceButton: 0
        sourceAxis: 0
        sourceAxisPole: 0
        axisDeadZone: 0
        sourceHat: 0
        sourceHatType: 0
        sourceHatDirection: 0
        requireMultipleButtons: 0
        requiredButtons: 
        ignoreIfButtonsActive: 0
        ignoreIfButtonsActiveButtons: 
        buttonInfo:
          _excludeFromPolling: 0
          _isPressureSensitive: 0
      - elementIdentifier: 4
        sourceType: 0
        sourceButton: 1
        sourceAxis: 0
        sourceAxisPole: 0
        axisDeadZone: 0
        sourceHat: 0
        sourceHatType: 0
        sourceHatDirection: 0
        requireMultipleButtons: 0
        requiredButtons: 
        ignoreIfButtonsActive: 0
        ignoreIfButtonsActiveButtons: 
        buttonInfo:
          _excludeFromPolling: 0
          _isPressureSensitive: 0
      - elementIdentifier: 5
        sourceType: 0
        sourceButton: 2
        sourceAxis: 0
        sourceAxisPole: 0
        axisDeadZone: 0
        sourceHat: 0
        sourceHatType: 0
        sourceHatDirection: 0
        requireMultipleButtons: 0
        requiredButtons: 
        ignoreIfButtonsActive: 0
        ignoreIfButtonsActiveButtons: 
        buttonInfo:
          _excludeFromPolling: 0
          _isPressureSensitive: 0
      - elementIdentifier: 6
        sourceType: 0
        sourceButton: 3
        sourceAxis: 0
        sourceAxisPole: 0
        axisDeadZone: 0
        sourceHat: 0
        sourceHatType: 0
        sourceHatDirection: 0
        requireMultipleButtons: 0
        requiredButtons: 
        ignoreIfButtonsActive: 0
        ignoreIfButtonsActiveButtons: 
        buttonInfo:
          _excludeFromPolling: 0
          _isPressureSensitive: 0
      - elementIdentifier: 7
        sourceType: 2
        sourceButton: 3
        sourceAxis: 0
        sourceAxisPole: 0
        axisDeadZone: 0
        sourceHat: 0
        sourceHatType: 1
        sourceHatDirection: 0
        requireMultipleButtons: 0
        requiredButtons: 
        ignoreIfButtonsActive: 0
        ignoreIfButtonsActiveButtons: 
        buttonInfo:
          _excludeFromPolling: 0
          _isPressureSensitive: 0
      - elementIdentifier: 8
        sourceType: 2
        sourceButton: 3
        sourceAxis: 0
        sourceAxisPole: 0
        axisDeadZone: 0
        sourceHat: 0
        sourceHatType: 1
        sourceHatDirection: 4
        requireMultipleButtons: 0
        requiredButtons: 
        ignoreIfButtonsActive: 0
        ignoreIfButtonsActiveButtons: 
        buttonInfo:
          _excludeFromPolling: 0
          _isPressureSensitive: 0
      - elementIdentifier: 9
        sourceType: 2
        sourceButton: 3
        sourceAxis: 0
        sourceAxisPole: 0
        axisDeadZone: 0
        sourceHat: 0
        sourceHatType: 1
        sourceHatDirection: 1
        requireMultipleButtons: 0
        requiredButtons: 
        ignoreIfButtonsActive: 0
        ignoreIfButtonsActiveButtons: 
        buttonInfo:
          _excludeFromPolling: 0
          _isPressureSensitive: 0
      - elementIdentifier: 10
        sourceType: 2
        sourceButton: 3
        sourceAxis: 0
        sourceAxisPole: 0
        axisDeadZone: 0
        sourceHat: 0
        sourceHatType: 1
        sourceHatDirection: 5
        requireMultipleButtons: 0
        requiredButtons: 
        ignoreIfButtonsActive: 0
        ignoreIfButtonsActiveButtons: 
        buttonInfo:
          _excludeFromPolling: 0
          _isPressureSensitive: 0
      - elementIdentifier: 11
        sourceType: 2
        sourceButton: 3
        sourceAxis: 0
        sourceAxisPole: 0
        axisDeadZone: 0
        sourceHat: 0
        sourceHatType: 1
        sourceHatDirection: 2
        requireMultipleButtons: 0
        requiredButtons: 
        ignoreIfButtonsActive: 0
        ignoreIfButtonsActiveButtons: 
        buttonInfo:
          _excludeFromPolling: 0
          _isPressureSensitive: 0
      - elementIdentifier: 12
        sourceType: 2
        sourceButton: 3
        sourceAxis: 0
        sourceAxisPole: 0
        axisDeadZone: 0
        sourceHat: 0
        sourceHatType: 1
        sourceHatDirection: 6
        requireMultipleButtons: 0
        requiredButtons: 
        ignoreIfButtonsActive: 0
        ignoreIfButtonsActiveButtons: 
        buttonInfo:
          _excludeFromPolling: 0
          _isPressureSensitive: 0
      - elementIdentifier: 13
        sourceType: 2
        sourceButton: 3
        sourceAxis: 0
        sourceAxisPole: 0
        axisDeadZone: 0
        sourceHat: 0
        sourceHatType: 1
        sourceHatDirection: 3
        requireMultipleButtons: 0
        requiredButtons: 
        ignoreIfButtonsActive: 0
        ignoreIfButtonsActiveButtons: 
        buttonInfo:
          _excludeFromPolling: 0
          _isPressureSensitive: 0
      - elementIdentifier: 14
        sourceType: 2
        sourceButton: 3
        sourceAxis: 0
        sourceAxisPole: 0
        axisDeadZone: 0
        sourceHat: 0
        sourceHatType: 1
        sourceHatDirection: 7
        requireMultipleButtons: 0
        requiredButtons: 
        ignoreIfButtonsActive: 0
        ignoreIfButtonsActiveButtons: 
        buttonInfo:
          _excludeFromPolling: 0
          _isPressureSensitive: 0
    variants: []
  windowsUWP:
    description: 
    matchingCriteria:
      axisCount: 3
      buttonCount: 4
      disabled: 0
      tag: 
      hatCount: 1
      manufacturer_useRegex: 0
      productName_useRegex: 0
      manufacturer:
      - CH PRODUCTS
      productName:
      - CH FLIGHTSTICK PRO
      productGUID:
      - 00f6068e
    elements:
      axes:
      - elementIdentifier: 0
        sourceType: 1
        sourceAxis: 0
        sourceAxisRange: 0
        invert: 0
        axisDeadZone: 0.1
        calibrateAxis: 0
        axisZero: 0
        axisMin: 0
        axisMax: 0
        axisInfo:
          _dataFormat: 0
          _excludeFromPolling: 0
        sourceButton: 0
        buttonAxisContribution: 0
        sourceHat: 0
        sourceHatDirection: 0
        sourceHatRange: 0
      - elementIdentifier: 1
        sourceType: 1
        sourceAxis: 1
        sourceAxisRange: 0
        invert: 1
        axisDeadZone: 0.1
        calibrateAxis: 0
        axisZero: 0
        axisMin: 0
        axisMax: 0
        axisInfo:
          _dataFormat: 0
          _excludeFromPolling: 0
        sourceButton: 0
        buttonAxisContribution: 0
        sourceHat: 0
        sourceHatDirection: 0
        sourceHatRange: 0
      - elementIdentifier: 2
        sourceType: 1
        sourceAxis: 2
        sourceAxisRange: 0
        invert: 1
        axisDeadZone: 0.1
        calibrateAxis: 0
        axisZero: 0
        axisMin: 0
        axisMax: 0
        axisInfo:
          _dataFormat: 0
          _excludeFromPolling: 0
        sourceButton: 0
        buttonAxisContribution: 0
        sourceHat: 0
        sourceHatDirection: 0
        sourceHatRange: 0
      buttons:
      - elementIdentifier: 3
        sourceType: 0
        sourceButton: 0
        sourceAxis: 0
        sourceAxisPole: 0
        axisDeadZone: 0
        sourceHat: 0
        sourceHatType: 0
        sourceHatDirection: 0
        requireMultipleButtons: 0
        requiredButtons: 
        ignoreIfButtonsActive: 0
        ignoreIfButtonsActiveButtons: 
        buttonInfo:
          _excludeFromPolling: 0
          _isPressureSensitive: 0
      - elementIdentifier: 4
        sourceType: 0
        sourceButton: 1
        sourceAxis: 0
        sourceAxisPole: 0
        axisDeadZone: 0
        sourceHat: 0
        sourceHatType: 0
        sourceHatDirection: 0
        requireMultipleButtons: 0
        requiredButtons: 
        ignoreIfButtonsActive: 0
        ignoreIfButtonsActiveButtons: 
        buttonInfo:
          _excludeFromPolling: 0
          _isPressureSensitive: 0
      - elementIdentifier: 5
        sourceType: 0
        sourceButton: 2
        sourceAxis: 0
        sourceAxisPole: 0
        axisDeadZone: 0
        sourceHat: 0
        sourceHatType: 0
        sourceHatDirection: 0
        requireMultipleButtons: 0
        requiredButtons: 
        ignoreIfButtonsActive: 0
        ignoreIfButtonsActiveButtons: 
        buttonInfo:
          _excludeFromPolling: 0
          _isPressureSensitive: 0
      - elementIdentifier: 6
        sourceType: 0
        sourceButton: 3
        sourceAxis: 0
        sourceAxisPole: 0
        axisDeadZone: 0
        sourceHat: 0
        sourceHatType: 0
        sourceHatDirection: 0
        requireMultipleButtons: 0
        requiredButtons: 
        ignoreIfButtonsActive: 0
        ignoreIfButtonsActiveButtons: 
        buttonInfo:
          _excludeFromPolling: 0
          _isPressureSensitive: 0
      - elementIdentifier: 7
        sourceType: 2
        sourceButton: 3
        sourceAxis: 0
        sourceAxisPole: 0
        axisDeadZone: 0
        sourceHat: 0
        sourceHatType: 1
        sourceHatDirection: 0
        requireMultipleButtons: 0
        requiredButtons: 
        ignoreIfButtonsActive: 0
        ignoreIfButtonsActiveButtons: 
        buttonInfo:
          _excludeFromPolling: 0
          _isPressureSensitive: 0
      - elementIdentifier: 8
        sourceType: 2
        sourceButton: 3
        sourceAxis: 0
        sourceAxisPole: 0
        axisDeadZone: 0
        sourceHat: 0
        sourceHatType: 1
        sourceHatDirection: 4
        requireMultipleButtons: 0
        requiredButtons: 
        ignoreIfButtonsActive: 0
        ignoreIfButtonsActiveButtons: 
        buttonInfo:
          _excludeFromPolling: 0
          _isPressureSensitive: 0
      - elementIdentifier: 9
        sourceType: 2
        sourceButton: 3
        sourceAxis: 0
        sourceAxisPole: 0
        axisDeadZone: 0
        sourceHat: 0
        sourceHatType: 1
        sourceHatDirection: 1
        requireMultipleButtons: 0
        requiredButtons: 
        ignoreIfButtonsActive: 0
        ignoreIfButtonsActiveButtons: 
        buttonInfo:
          _excludeFromPolling: 0
          _isPressureSensitive: 0
      - elementIdentifier: 10
        sourceType: 2
        sourceButton: 3
        sourceAxis: 0
        sourceAxisPole: 0
        axisDeadZone: 0
        sourceHat: 0
        sourceHatType: 1
        sourceHatDirection: 5
        requireMultipleButtons: 0
        requiredButtons: 
        ignoreIfButtonsActive: 0
        ignoreIfButtonsActiveButtons: 
        buttonInfo:
          _excludeFromPolling: 0
          _isPressureSensitive: 0
      - elementIdentifier: 11
        sourceType: 2
        sourceButton: 3
        sourceAxis: 0
        sourceAxisPole: 0
        axisDeadZone: 0
        sourceHat: 0
        sourceHatType: 1
        sourceHatDirection: 2
        requireMultipleButtons: 0
        requiredButtons: 
        ignoreIfButtonsActive: 0
        ignoreIfButtonsActiveButtons: 
        buttonInfo:
          _excludeFromPolling: 0
          _isPressureSensitive: 0
      - elementIdentifier: 12
        sourceType: 2
        sourceButton: 3
        sourceAxis: 0
        sourceAxisPole: 0
        axisDeadZone: 0
        sourceHat: 0
        sourceHatType: 1
        sourceHatDirection: 6
        requireMultipleButtons: 0
        requiredButtons: 
        ignoreIfButtonsActive: 0
        ignoreIfButtonsActiveButtons: 
        buttonInfo:
          _excludeFromPolling: 0
          _isPressureSensitive: 0
      - elementIdentifier: 13
        sourceType: 2
        sourceButton: 3
        sourceAxis: 0
        sourceAxisPole: 0
        axisDeadZone: 0
        sourceHat: 0
        sourceHatType: 1
        sourceHatDirection: 3
        requireMultipleButtons: 0
        requiredButtons: 
        ignoreIfButtonsActive: 0
        ignoreIfButtonsActiveButtons: 
        buttonInfo:
          _excludeFromPolling: 0
          _isPressureSensitive: 0
      - elementIdentifier: 14
        sourceType: 2
        sourceButton: 3
        sourceAxis: 0
        sourceAxisPole: 0
        axisDeadZone: 0
        sourceHat: 0
        sourceHatType: 1
        sourceHatDirection: 7
        requireMultipleButtons: 0
        requiredButtons: 
        ignoreIfButtonsActive: 0
        ignoreIfButtonsActiveButtons: 
        buttonInfo:
          _excludeFromPolling: 0
          _isPressureSensitive: 0
    variants: []
  fallback_Windows:
    description: 
    matchingCriteria:
      axisCount: 0
      buttonCount: 0
      disabled: 0
      tag: 
      alwaysMatch: 0
      productName_useRegex: 0
      productName: []
      matchUnityVersion: 0
      matchUnityVersion_min: 
      matchUnityVersion_max: 
    elements:
      axes: []
      buttons: []
    variants: []
  fallback_WindowsUWP:
    description: 
    matchingCriteria:
      axisCount: 0
      buttonCount: 0
      disabled: 0
      tag: 
      alwaysMatch: 0
      productName_useRegex: 0
      productName: []
      matchUnityVersion: 0
      matchUnityVersion_min: 
      matchUnityVersion_max: 
    elements:
      axes: []
      buttons: []
    variants: []
  fallback_OSX:
    description: 
    matchingCriteria:
      axisCount: 0
      buttonCount: 0
      disabled: 0
      tag: 
      alwaysMatch: 0
      productName_useRegex: 0
      productName: []
      matchUnityVersion: 0
      matchUnityVersion_min: 
      matchUnityVersion_max: 
    elements:
      axes: []
      buttons: []
    variants: []
  fallback_Linux:
    description: 
    matchingCriteria:
      axisCount: 0
      buttonCount: 0
      disabled: 0
      tag: 
      alwaysMatch: 0
      productName_useRegex: 0
      productName: []
      matchUnityVersion: 0
      matchUnityVersion_min: 
      matchUnityVersion_max: 
    elements:
      axes: []
      buttons: []
    variants: []
  fallback_Linux_PreConfigured:
    description: 
    matchingCriteria:
      axisCount: 0
      buttonCount: 0
      disabled: 0
      tag: 
      alwaysMatch: 0
      productName_useRegex: 0
      productName: []
      matchUnityVersion: 0
      matchUnityVersion_min: 
      matchUnityVersion_max: 
    elements:
      axes: []
      buttons: []
    variants: []
  fallback_Android:
    description: 
    matchingCriteria:
      axisCount: 0
      buttonCount: 0
      disabled: 0
      tag: 
      alwaysMatch: 0
      productName_useRegex: 0
      productName: []
      matchUnityVersion: 0
      matchUnityVersion_min: 
      matchUnityVersion_max: 
    elements:
      axes: []
      buttons: []
    variants: []
  fallback_iOS:
    description: 
    matchingCriteria:
      axisCount: 0
      buttonCount: 0
      disabled: 0
      tag: 
      alwaysMatch: 0
      productName_useRegex: 0
      productName: []
      matchUnityVersion: 0
      matchUnityVersion_min: 
      matchUnityVersion_max: 
    elements:
      axes: []
      buttons: []
    variants: []
  fallback_Blackberry:
    description: 
    matchingCriteria:
      axisCount: 0
      buttonCount: 0
      disabled: 0
      tag: 
      alwaysMatch: 0
      productName_useRegex: 0
      productName: []
      matchUnityVersion: 0
      matchUnityVersion_min: 
      matchUnityVersion_max: 
    elements:
      axes: []
      buttons: []
    variants: []
  fallback_WindowsPhone8:
    description: 
    matchingCriteria:
      axisCount: 0
      buttonCount: 0
      disabled: 0
      tag: 
      alwaysMatch: 0
      productName_useRegex: 0
      productName: []
      matchUnityVersion: 0
      matchUnityVersion_min: 
      matchUnityVersion_max: 
    elements:
      axes: []
      buttons: []
    variants: []
  fallback_XBox360:
    description: 
    matchingCriteria:
      axisCount: 0
      buttonCount: 0
      disabled: 0
      tag: 
      alwaysMatch: 0
      productName_useRegex: 0
      productName: []
      matchUnityVersion: 0
      matchUnityVersion_min: 
      matchUnityVersion_max: 
    elements:
      axes: []
      buttons: []
    variants: []
  fallback_XBoxOne:
    description: 
    matchingCriteria:
      axisCount: 0
      buttonCount: 0
      disabled: 0
      tag: 
      alwaysMatch: 0
      productName_useRegex: 0
      productName: []
      matchUnityVersion: 0
      matchUnityVersion_min: 
      matchUnityVersion_max: 
    elements:
      axes: []
      buttons: []
    variants: []
  fallback_PS3:
    description: 
    matchingCriteria:
      axisCount: 0
      buttonCount: 0
      disabled: 0
      tag: 
      alwaysMatch: 0
      productName_useRegex: 0
      productName: []
      matchUnityVersion: 0
      matchUnityVersion_min: 
      matchUnityVersion_max: 
    elements:
      axes: []
      buttons: []
    variants: []
  fallback_PS4:
    description: 
    matchingCriteria:
      axisCount: 0
      buttonCount: 0
      disabled: 0
      tag: 
      alwaysMatch: 0
      productName_useRegex: 0
      productName: []
      matchUnityVersion: 0
      matchUnityVersion_min: 
      matchUnityVersion_max: 
    elements:
      axes: []
      buttons: []
    variants: []
  fallback_PSM:
    description: 
    matchingCriteria:
      axisCount: 0
      buttonCount: 0
      disabled: 0
      tag: 
      alwaysMatch: 0
      productName_useRegex: 0
      productName: []
      matchUnityVersion: 0
      matchUnityVersion_min: 
      matchUnityVersion_max: 
    elements:
      axes: []
      buttons: []
    variants: []
  fallback_PSVita:
    description: 
    matchingCriteria:
      axisCount: 0
      buttonCount: 0
      disabled: 0
      tag: 
      alwaysMatch: 0
      productName_useRegex: 0
      productName: []
      matchUnityVersion: 0
      matchUnityVersion_min: 
      matchUnityVersion_max: 
    elements:
      axes: []
      buttons: []
    variants: []
  fallback_Wii:
    description: 
    matchingCriteria:
      axisCount: 0
      buttonCount: 0
      disabled: 0
      tag: 
      alwaysMatch: 0
      productName_useRegex: 0
      productName: []
      matchUnityVersion: 0
      matchUnityVersion_min: 
      matchUnityVersion_max: 
    elements:
      axes: []
      buttons: []
    variants: []
  fallback_WiiU:
    description: 
    matchingCriteria:
      axisCount: 0
      buttonCount: 0
      disabled: 0
      tag: 
      alwaysMatch: 0
      productName_useRegex: 0
      productName: []
      matchUnityVersion: 0
      matchUnityVersion_min: 
      matchUnityVersion_max: 
    elements:
      axes: []
      buttons: []
    variants: []
  fallback_AmazonFireTV:
    description: 
    matchingCriteria:
      axisCount: 0
      buttonCount: 0
      disabled: 0
      tag: 
      alwaysMatch: 0
      productName_useRegex: 0
      productName: []
      matchUnityVersion: 0
      matchUnityVersion_min: 
      matchUnityVersion_max: 
    elements:
      axes: []
      buttons: []
    variants: []
  fallback_RazerForgeTV:
    description: 
    matchingCriteria:
      axisCount: 0
      buttonCount: 0
      disabled: 0
      tag: 
      alwaysMatch: 0
      productName_useRegex: 0
      productName: []
      matchUnityVersion: 0
      matchUnityVersion_min: 
      matchUnityVersion_max: 
    elements:
      axes: []
      buttons: []
    variants: []
  webGL:
    description: 
    matchingCriteria:
      axisCount: 0
      buttonCount: 0
      disabled: 0
      tag: 
      alwaysMatch: 0
      productName_useRegex: 0
      productName: []
      productGUID: []
      mapping: 
      elementCount: []
      clientInfo: []
    elements:
      axes: []
      buttons: []
    variants: []
  ouya:
    description: 
    matchingCriteria:
      axisCount: 0
      buttonCount: 0
      disabled: 0
      tag: 
      alwaysMatch: 0
    elements:
      axes: []
      buttons: []
    variants: []
  xboxOne:
    description: 
    matchingCriteria:
      axisCount: 0
      buttonCount: 0
      disabled: 0
      tag: 
      alwaysMatch: 0
      productName_useRegex: 0
      productName: []
    elements:
      axes: []
      buttons: []
    variants: []
  ps4:
    description: 
    matchingCriteria:
      axisCount: 0
      buttonCount: 0
      disabled: 0
      tag: 
      alwaysMatch: 0
      productName_useRegex: 0
      productName: []
    elements:
      axes: []
      buttons: []
    variants: []
  nintendoSwitch:
    description: 
    matchingCriteria:
      axisCount: 0
      buttonCount: 0
      disabled: 0
      tag: 
      alwaysMatch: 0
      productName_useRegex: 0
      productName: []
    elements:
      axes: []
      buttons: []
    variants: []
  internalDriver:
    description: 
    matchingCriteria:
      axisCount: 0
      buttonCount: 0
      disabled: 0
      tag: 
      alwaysMatch: 0
      productName_useRegex: 0
      productName: []
      vidPid: []
      hatCount: 0
    elements:
      axes: []
      buttons: []
    variants: []
  sdl2_Linux:
    description: 
    matchingCriteria:
      axisCount: 0
      buttonCount: 0
      disabled: 0
      tag: 
      hatCount: 0
      manufacturer_useRegex: 0
      productName_useRegex: 0
      systemName_useRegex: 0
      manufacturer: []
      productName: []
      systemName: []
      productGUID: []
    elements:
      axes: []
      buttons: []
    variants: []
  sdl2_Windows:
    description: 
    matchingCriteria:
      axisCount: 0
      buttonCount: 0
      disabled: 0
      tag: 
      hatCount: 0
      manufacturer_useRegex: 0
      productName_useRegex: 0
      systemName_useRegex: 0
      manufacturer: []
      productName: []
      systemName: []
      productGUID: []
    elements:
      axes: []
      buttons: []
    variants: []
  sdl2_OSX:
    description: 
    matchingCriteria:
      axisCount: 0
      buttonCount: 0
      disabled: 0
      tag: 
      hatCount: 0
      manufacturer_useRegex: 0
      productName_useRegex: 0
      systemName_useRegex: 0
      manufacturer: []
      productName: []
      systemName: []
      productGUID: []
    elements:
      axes: []
      buttons: []
    variants: []
  elementIdentifierIdCounter: 18
