%YAML 1.1
%TAG !u! tag:unity3d.com,2011:
--- !u!114 &11400000
MonoBehaviour:
  m_ObjectHideFlags: 0
  m_PrefabParentObject: {fileID: 0}
  m_PrefabInternal: {fileID: 0}
  m_GameObject: {fileID: 0}
  m_Enabled: 1
  m_EditorHideFlags: 0
  m_Script: {fileID: 323110133, guid: 09c9b883b79ef864a99683bb36c5776d, type: 3}
  m_Name: NintendoSwitchHandheld
  m_EditorClassIdentifier: 
  controllerName: Nintendo Switch
  editorControllerName: Nintendo Switch Joy-Con (Handheld)
  description: 
  controllerGuid: 1fbdd13b-0795-4173-8a95-a2a75de9d204
  templateGuids:
  - 83b427e4-086f-47f3-bb06-be266abd1ca5
  hideInLists: 0
  elementIdentifiers:
  - _id: 0
    _name: Left Stick X
    _elementType: 0
    _compoundElementType: 0
  - _id: 1
    _name: Left Stick Y
    _elementType: 0
    _compoundElementType: 0
  - _id: 2
    _name: Right Stick X
    _elementType: 0
    _compoundElementType: 0
  - _id: 3
    _name: Right Stick Y
    _elementType: 0
    _compoundElementType: 0
  - _id: 4
    _name: B
    _elementType: 1
    _compoundElementType: 0
  - _id: 5
    _name: A
    _elementType: 1
    _compoundElementType: 0
  - _id: 6
    _name: Y
    _elementType: 1
    _compoundElementType: 0
  - _id: 7
    _name: X
    _elementType: 1
    _compoundElementType: 0
  - _id: 8
    _name: L
    _elementType: 1
    _compoundElementType: 0
  - _id: 9
    _name: R
    _elementType: 1
    _compoundElementType: 0
  - _id: 10
    _name: ZL
    _elementType: 1
    _compoundElementType: 0
  - _id: 11
    _name: ZR
    _elementType: 1
    _compoundElementType: 0
  - _id: 12
    _name: Minus
    _elementType: 1
    _compoundElementType: 0
  - _id: 13
    _name: Plus
    _elementType: 1
    _compoundElementType: 0
  - _id: 14
    _name: Capture
    _elementType: 1
    _compoundElementType: 0
  - _id: 15
    _name: Home
    _elementType: 1
    _compoundElementType: 0
  - _id: 16
    _name: Left Stick Button
    _elementType: 1
    _compoundElementType: 0
  - _id: 17
    _name: Right Stick Button
    _elementType: 1
    _compoundElementType: 0
  - _id: 18
    _name: D-Pad Up
    _elementType: 1
    _compoundElementType: 0
  - _id: 19
    _name: D-Pad Right
    _elementType: 1
    _compoundElementType: 0
  - _id: 20
    _name: D-Pad Down
    _elementType: 1
    _compoundElementType: 0
  - _id: 21
    _name: D-Pad Left
    _elementType: 1
    _compoundElementType: 0
  - _id: 22
    _name: Left Stick
    _elementType: 100
    _compoundElementType: 0
  - _id: 23
    _name: Right Stick
    _elementType: 100
    _compoundElementType: 0
  compoundElements:
  - type: 0
    elementIdentifier: 22
    componentElementIdentifiers: 0000000001000000
  - type: 0
    elementIdentifier: 23
    componentElementIdentifiers: 0200000003000000
  directInput:
    description: 
    matchingCriteria:
      axisCount: 0
      buttonCount: 0
      disabled: 0
      tag: 
      hatCount: 0
      productName_useRegex: 0
      productName: []
      productGUID: []
      productId: 
      deviceType: 0
    elements:
      axes: []
      buttons: []
    variants: []
  rawInput:
    description: 
    matchingCriteria:
      axisCount: 0
      buttonCount: 0
      disabled: 0
      tag: 
      hatCount: 0
      productName_useRegex: 0
      productName: []
      productGUID: []
      productId: 
      deviceType: 0
    elements:
      axes: []
      buttons: []
    variants: []
  xInput:
    description: 
    matchingCriteria:
      axisCount: 0
      buttonCount: 0
      disabled: 0
      tag: 
      subType: 
    elements:
      axes: []
      buttons: []
    variants: []
  osx:
    description: 
    matchingCriteria:
      axisCount: 0
      buttonCount: 0
      disabled: 0
      tag: 
      hatCount: 0
      productName_useRegex: 0
      productName: []
      manufacturer: []
      productId: 
      vendorId: 
    elements:
      axes: []
      buttons: []
    variants: []
  linux:
    description: 
    matchingCriteria:
      axisCount: 0
      buttonCount: 0
      disabled: 0
      tag: 
      hatCount: 0
      manufacturer_useRegex: 0
      productName_useRegex: 0
      systemName_useRegex: 0
      manufacturer: []
      productName: []
      systemName: []
      productGUID: []
    elements:
      axes: []
      buttons: []
    variants: []
  windowsUWP:
    description: 
    matchingCriteria:
      axisCount: 0
      buttonCount: 0
      disabled: 0
      tag: 
      hatCount: 0
      manufacturer_useRegex: 0
      productName_useRegex: 0
      manufacturer: []
      productName: []
      productGUID: []
    elements:
      axes: []
      buttons: []
    variants: []
  fallback_Windows:
    description: 
    matchingCriteria:
      axisCount: 0
      buttonCount: 0
      disabled: 0
      tag: 
      alwaysMatch: 0
      productName_useRegex: 0
      productName: []
      matchUnityVersion: 0
      matchUnityVersion_min: 
      matchUnityVersion_max: 
    elements:
      axes: []
      buttons: []
    variants: []
  fallback_WindowsUWP:
    description: 
    matchingCriteria:
      axisCount: 0
      buttonCount: 0
      disabled: 0
      tag: 
      alwaysMatch: 0
      productName_useRegex: 0
      productName: []
      matchUnityVersion: 0
      matchUnityVersion_min: 
      matchUnityVersion_max: 
    elements:
      axes: []
      buttons: []
    variants: []
  fallback_OSX:
    description: 
    matchingCriteria:
      axisCount: 0
      buttonCount: 0
      disabled: 0
      tag: 
      alwaysMatch: 0
      productName_useRegex: 0
      productName: []
      matchUnityVersion: 0
      matchUnityVersion_min: 
      matchUnityVersion_max: 
    elements:
      axes: []
      buttons: []
    variants: []
  fallback_Linux:
    description: 
    matchingCriteria:
      axisCount: 0
      buttonCount: 0
      disabled: 0
      tag: 
      alwaysMatch: 0
      productName_useRegex: 0
      productName: []
      matchUnityVersion: 0
      matchUnityVersion_min: 
      matchUnityVersion_max: 
    elements:
      axes: []
      buttons: []
    variants: []
  fallback_Linux_PreConfigured:
    description: 
    matchingCriteria:
      axisCount: 0
      buttonCount: 0
      disabled: 0
      tag: 
      alwaysMatch: 0
      productName_useRegex: 0
      productName: []
      matchUnityVersion: 0
      matchUnityVersion_min: 
      matchUnityVersion_max: 
    elements:
      axes: []
      buttons: []
    variants: []
  fallback_Android:
    description: 
    matchingCriteria:
      axisCount: 0
      buttonCount: 0
      disabled: 0
      tag: 
      alwaysMatch: 0
      productName_useRegex: 0
      productName: []
      matchUnityVersion: 0
      matchUnityVersion_min: 
      matchUnityVersion_max: 
    elements:
      axes: []
      buttons: []
    variants: []
  fallback_iOS:
    description: 
    matchingCriteria:
      axisCount: 0
      buttonCount: 0
      disabled: 0
      tag: 
      alwaysMatch: 0
      productName_useRegex: 0
      productName: []
      matchUnityVersion: 0
      matchUnityVersion_min: 
      matchUnityVersion_max: 
    elements:
      axes: []
      buttons: []
    variants: []
  fallback_Blackberry:
    description: 
    matchingCriteria:
      axisCount: 0
      buttonCount: 0
      disabled: 0
      tag: 
      alwaysMatch: 0
      productName_useRegex: 0
      productName: []
      matchUnityVersion: 0
      matchUnityVersion_min: 
      matchUnityVersion_max: 
    elements:
      axes: []
      buttons: []
    variants: []
  fallback_WindowsPhone8:
    description: 
    matchingCriteria:
      axisCount: 0
      buttonCount: 0
      disabled: 0
      tag: 
      alwaysMatch: 0
      productName_useRegex: 0
      productName: []
      matchUnityVersion: 0
      matchUnityVersion_min: 
      matchUnityVersion_max: 
    elements:
      axes: []
      buttons: []
    variants: []
  fallback_XBox360:
    description: 
    matchingCriteria:
      axisCount: 0
      buttonCount: 0
      disabled: 0
      tag: 
      alwaysMatch: 0
      productName_useRegex: 0
      productName: []
      matchUnityVersion: 0
      matchUnityVersion_min: 
      matchUnityVersion_max: 
    elements:
      axes: []
      buttons: []
    variants: []
  fallback_XBoxOne:
    description: 
    matchingCriteria:
      axisCount: 0
      buttonCount: 0
      disabled: 0
      tag: 
      alwaysMatch: 0
      productName_useRegex: 0
      productName: []
      matchUnityVersion: 0
      matchUnityVersion_min: 
      matchUnityVersion_max: 
    elements:
      axes: []
      buttons: []
    variants: []
  fallback_PS3:
    description: 
    matchingCriteria:
      axisCount: 0
      buttonCount: 0
      disabled: 0
      tag: 
      alwaysMatch: 0
      productName_useRegex: 0
      productName: []
      matchUnityVersion: 0
      matchUnityVersion_min: 
      matchUnityVersion_max: 
    elements:
      axes: []
      buttons: []
    variants: []
  fallback_PS4:
    description: 
    matchingCriteria:
      axisCount: 0
      buttonCount: 0
      disabled: 0
      tag: 
      alwaysMatch: 0
      productName_useRegex: 0
      productName: []
      matchUnityVersion: 0
      matchUnityVersion_min: 
      matchUnityVersion_max: 
    elements:
      axes: []
      buttons: []
    variants: []
  fallback_PSM:
    description: 
    matchingCriteria:
      axisCount: 0
      buttonCount: 0
      disabled: 0
      tag: 
      alwaysMatch: 0
      productName_useRegex: 0
      productName: []
      matchUnityVersion: 0
      matchUnityVersion_min: 
      matchUnityVersion_max: 
    elements:
      axes: []
      buttons: []
    variants: []
  fallback_PSVita:
    description: 
    matchingCriteria:
      axisCount: 0
      buttonCount: 0
      disabled: 0
      tag: 
      alwaysMatch: 0
      productName_useRegex: 0
      productName: []
      matchUnityVersion: 0
      matchUnityVersion_min: 
      matchUnityVersion_max: 
    elements:
      axes: []
      buttons: []
    variants: []
  fallback_Wii:
    description: 
    matchingCriteria:
      axisCount: 0
      buttonCount: 0
      disabled: 0
      tag: 
      alwaysMatch: 0
      productName_useRegex: 0
      productName: []
      matchUnityVersion: 0
      matchUnityVersion_min: 
      matchUnityVersion_max: 
    elements:
      axes: []
      buttons: []
    variants: []
  fallback_WiiU:
    description: 
    matchingCriteria:
      axisCount: 0
      buttonCount: 0
      disabled: 0
      tag: 
      alwaysMatch: 0
      productName_useRegex: 0
      productName: []
      matchUnityVersion: 0
      matchUnityVersion_min: 
      matchUnityVersion_max: 
    elements:
      axes: []
      buttons: []
    variants: []
  fallback_AmazonFireTV:
    description: 
    matchingCriteria:
      axisCount: 0
      buttonCount: 0
      disabled: 0
      tag: 
      alwaysMatch: 0
      productName_useRegex: 0
      productName: []
      matchUnityVersion: 0
      matchUnityVersion_min: 
      matchUnityVersion_max: 
    elements:
      axes: []
      buttons: []
    variants: []
  fallback_RazerForgeTV:
    description: 
    matchingCriteria:
      axisCount: 0
      buttonCount: 0
      disabled: 0
      tag: 
      alwaysMatch: 0
      productName_useRegex: 0
      productName: []
      matchUnityVersion: 0
      matchUnityVersion_min: 
      matchUnityVersion_max: 
    elements:
      axes: []
      buttons: []
    variants: []
  webGL:
    description: 
    matchingCriteria:
      axisCount: 0
      buttonCount: 0
      disabled: 0
      tag: 
      alwaysMatch: 0
      productName_useRegex: 0
      productName: []
      productGUID: []
      mapping: 
      elementCount: []
      clientInfo: []
    elements:
      axes: []
      buttons: []
    variants: []
  ouya:
    description: 
    matchingCriteria:
      axisCount: 0
      buttonCount: 0
      disabled: 0
      tag: 
      alwaysMatch: 0
    elements:
      axes: []
      buttons: []
    variants: []
  xboxOne:
    description: 
    matchingCriteria:
      axisCount: 0
      buttonCount: 0
      disabled: 0
      tag: 
      alwaysMatch: 0
      productName_useRegex: 0
      productName: []
    elements:
      axes: []
      buttons: []
    variants: []
  ps4:
    description: 
    matchingCriteria:
      axisCount: 0
      buttonCount: 0
      disabled: 0
      tag: 
      alwaysMatch: 0
      productName_useRegex: 0
      productName: []
    elements:
      axes: []
      buttons: []
    variants: []
  nintendoSwitch:
    description: 
    matchingCriteria:
      axisCount: 0
      buttonCount: 0
      disabled: 0
      tag: 
      alwaysMatch: 0
      productName_useRegex: 0
      productName:
      - Handheld
    elements:
      axes:
      - elementIdentifier: 0
        sourceType: 1
        sourceAxis: 0
        axisDeadZone: 0
        sourceButton: 0
        customCalculation: {fileID: 0}
        customCalculationSourceData: []
        invert: 0
        sourceAxisRange: 0
        buttonAxisContribution: 0
        calibrateAxis: 0
        axisZero: 0
        axisMin: 0
        axisMax: 0
        axisInfo:
          _dataFormat: 0
          _excludeFromPolling: 0
      - elementIdentifier: 1
        sourceType: 1
        sourceAxis: 1
        axisDeadZone: 0
        sourceButton: 0
        customCalculation: {fileID: 0}
        customCalculationSourceData: []
        invert: 0
        sourceAxisRange: 0
        buttonAxisContribution: 0
        calibrateAxis: 0
        axisZero: 0
        axisMin: 0
        axisMax: 0
        axisInfo:
          _dataFormat: 0
          _excludeFromPolling: 0
      - elementIdentifier: 2
        sourceType: 1
        sourceAxis: 2
        axisDeadZone: 0
        sourceButton: 0
        customCalculation: {fileID: 0}
        customCalculationSourceData: []
        invert: 0
        sourceAxisRange: 0
        buttonAxisContribution: 0
        calibrateAxis: 0
        axisZero: 0
        axisMin: 0
        axisMax: 0
        axisInfo:
          _dataFormat: 0
          _excludeFromPolling: 0
      - elementIdentifier: 3
        sourceType: 1
        sourceAxis: 3
        axisDeadZone: 0
        sourceButton: 0
        customCalculation: {fileID: 0}
        customCalculationSourceData: []
        invert: 0
        sourceAxisRange: 0
        buttonAxisContribution: 0
        calibrateAxis: 0
        axisZero: 0
        axisMin: 0
        axisMax: 0
        axisInfo:
          _dataFormat: 0
          _excludeFromPolling: 0
      buttons:
      - elementIdentifier: 4
        sourceType: 0
        sourceAxis: 0
        axisDeadZone: 0
        sourceButton: 1
        customCalculation: {fileID: 0}
        customCalculationSourceData: []
        sourceAxisPole: 0
        requireMultipleButtons: 0
        requiredButtons: 
        ignoreIfButtonsActive: 0
        ignoreIfButtonsActiveButtons: 
        buttonInfo:
          _excludeFromPolling: 0
          _isPressureSensitive: 0
      - elementIdentifier: 5
        sourceType: 0
        sourceAxis: 0
        axisDeadZone: 0
        sourceButton: 0
        customCalculation: {fileID: 0}
        customCalculationSourceData: []
        sourceAxisPole: 0
        requireMultipleButtons: 0
        requiredButtons: 
        ignoreIfButtonsActive: 0
        ignoreIfButtonsActiveButtons: 
        buttonInfo:
          _excludeFromPolling: 0
          _isPressureSensitive: 0
      - elementIdentifier: 6
        sourceType: 0
        sourceAxis: 0
        axisDeadZone: 0
        sourceButton: 3
        customCalculation: {fileID: 0}
        customCalculationSourceData: []
        sourceAxisPole: 0
        requireMultipleButtons: 0
        requiredButtons: 
        ignoreIfButtonsActive: 0
        ignoreIfButtonsActiveButtons: 
        buttonInfo:
          _excludeFromPolling: 0
          _isPressureSensitive: 0
      - elementIdentifier: 7
        sourceType: 0
        sourceAxis: 0
        axisDeadZone: 0
        sourceButton: 2
        customCalculation: {fileID: 0}
        customCalculationSourceData: []
        sourceAxisPole: 0
        requireMultipleButtons: 0
        requiredButtons: 
        ignoreIfButtonsActive: 0
        ignoreIfButtonsActiveButtons: 
        buttonInfo:
          _excludeFromPolling: 0
          _isPressureSensitive: 0
      - elementIdentifier: 8
        sourceType: 0
        sourceAxis: 0
        axisDeadZone: 0
        sourceButton: 6
        customCalculation: {fileID: 0}
        customCalculationSourceData: []
        sourceAxisPole: 0
        requireMultipleButtons: 0
        requiredButtons: 
        ignoreIfButtonsActive: 0
        ignoreIfButtonsActiveButtons: 
        buttonInfo:
          _excludeFromPolling: 0
          _isPressureSensitive: 0
      - elementIdentifier: 9
        sourceType: 0
        sourceAxis: 0
        axisDeadZone: 0
        sourceButton: 7
        customCalculation: {fileID: 0}
        customCalculationSourceData: []
        sourceAxisPole: 0
        requireMultipleButtons: 0
        requiredButtons: 
        ignoreIfButtonsActive: 0
        ignoreIfButtonsActiveButtons: 
        buttonInfo:
          _excludeFromPolling: 0
          _isPressureSensitive: 0
      - elementIdentifier: 10
        sourceType: 0
        sourceAxis: 0
        axisDeadZone: 0
        sourceButton: 8
        customCalculation: {fileID: 0}
        customCalculationSourceData: []
        sourceAxisPole: 0
        requireMultipleButtons: 0
        requiredButtons: 
        ignoreIfButtonsActive: 0
        ignoreIfButtonsActiveButtons: 
        buttonInfo:
          _excludeFromPolling: 0
          _isPressureSensitive: 0
      - elementIdentifier: 11
        sourceType: 0
        sourceAxis: 0
        axisDeadZone: 0
        sourceButton: 9
        customCalculation: {fileID: 0}
        customCalculationSourceData: []
        sourceAxisPole: 0
        requireMultipleButtons: 0
        requiredButtons: 
        ignoreIfButtonsActive: 0
        ignoreIfButtonsActiveButtons: 
        buttonInfo:
          _excludeFromPolling: 0
          _isPressureSensitive: 0
      - elementIdentifier: 12
        sourceType: 0
        sourceAxis: 0
        axisDeadZone: 0
        sourceButton: 11
        customCalculation: {fileID: 0}
        customCalculationSourceData: []
        sourceAxisPole: 0
        requireMultipleButtons: 0
        requiredButtons: 
        ignoreIfButtonsActive: 0
        ignoreIfButtonsActiveButtons: 
        buttonInfo:
          _excludeFromPolling: 0
          _isPressureSensitive: 0
      - elementIdentifier: 13
        sourceType: 0
        sourceAxis: 0
        axisDeadZone: 0
        sourceButton: 10
        customCalculation: {fileID: 0}
        customCalculationSourceData: []
        sourceAxisPole: 0
        requireMultipleButtons: 0
        requiredButtons: 
        ignoreIfButtonsActive: 0
        ignoreIfButtonsActiveButtons: 
        buttonInfo:
          _excludeFromPolling: 0
          _isPressureSensitive: 0
      - elementIdentifier: 16
        sourceType: 0
        sourceAxis: 0
        axisDeadZone: 0
        sourceButton: 4
        customCalculation: {fileID: 0}
        customCalculationSourceData: []
        sourceAxisPole: 0
        requireMultipleButtons: 0
        requiredButtons: 
        ignoreIfButtonsActive: 0
        ignoreIfButtonsActiveButtons: 
        buttonInfo:
          _excludeFromPolling: 0
          _isPressureSensitive: 0
      - elementIdentifier: 17
        sourceType: 0
        sourceAxis: 0
        axisDeadZone: 0
        sourceButton: 5
        customCalculation: {fileID: 0}
        customCalculationSourceData: []
        sourceAxisPole: 0
        requireMultipleButtons: 0
        requiredButtons: 
        ignoreIfButtonsActive: 0
        ignoreIfButtonsActiveButtons: 
        buttonInfo:
          _excludeFromPolling: 0
          _isPressureSensitive: 0
      - elementIdentifier: 18
        sourceType: 0
        sourceAxis: 0
        axisDeadZone: 0
        sourceButton: 13
        customCalculation: {fileID: 0}
        customCalculationSourceData: []
        sourceAxisPole: 0
        requireMultipleButtons: 0
        requiredButtons: 
        ignoreIfButtonsActive: 0
        ignoreIfButtonsActiveButtons: 
        buttonInfo:
          _excludeFromPolling: 0
          _isPressureSensitive: 0
      - elementIdentifier: 19
        sourceType: 0
        sourceAxis: 0
        axisDeadZone: 0
        sourceButton: 14
        customCalculation: {fileID: 0}
        customCalculationSourceData: []
        sourceAxisPole: 0
        requireMultipleButtons: 0
        requiredButtons: 
        ignoreIfButtonsActive: 0
        ignoreIfButtonsActiveButtons: 
        buttonInfo:
          _excludeFromPolling: 0
          _isPressureSensitive: 0
      - elementIdentifier: 20
        sourceType: 0
        sourceAxis: 0
        axisDeadZone: 0
        sourceButton: 15
        customCalculation: {fileID: 0}
        customCalculationSourceData: []
        sourceAxisPole: 0
        requireMultipleButtons: 0
        requiredButtons: 
        ignoreIfButtonsActive: 0
        ignoreIfButtonsActiveButtons: 
        buttonInfo:
          _excludeFromPolling: 0
          _isPressureSensitive: 0
      - elementIdentifier: 21
        sourceType: 0
        sourceAxis: 0
        axisDeadZone: 0
        sourceButton: 12
        customCalculation: {fileID: 0}
        customCalculationSourceData: []
        sourceAxisPole: 0
        requireMultipleButtons: 0
        requiredButtons: 
        ignoreIfButtonsActive: 0
        ignoreIfButtonsActiveButtons: 
        buttonInfo:
          _excludeFromPolling: 0
          _isPressureSensitive: 0
    variants: []
  internalDriver:
    description: 
    matchingCriteria:
      axisCount: 0
      buttonCount: 0
      disabled: 0
      tag: 
      alwaysMatch: 0
      productName_useRegex: 0
      productName: []
      vidPid: []
      hatCount: 0
    elements:
      axes: []
      buttons: []
    variants: []
  sdl2_Linux:
    description: 
    matchingCriteria:
      axisCount: 0
      buttonCount: 0
      disabled: 0
      tag: 
      hatCount: 0
      manufacturer_useRegex: 0
      productName_useRegex: 0
      systemName_useRegex: 0
      manufacturer: []
      productName: []
      systemName: []
      productGUID: []
    elements:
      axes: []
      buttons: []
    variants: []
  sdl2_Windows:
    description: 
    matchingCriteria:
      axisCount: 0
      buttonCount: 0
      disabled: 0
      tag: 
      hatCount: 0
      manufacturer_useRegex: 0
      productName_useRegex: 0
      systemName_useRegex: 0
      manufacturer: []
      productName: []
      systemName: []
      productGUID: []
    elements:
      axes: []
      buttons: []
    variants: []
  sdl2_OSX:
    description: 
    matchingCriteria:
      axisCount: 0
      buttonCount: 0
      disabled: 0
      tag: 
      hatCount: 0
      manufacturer_useRegex: 0
      productName_useRegex: 0
      systemName_useRegex: 0
      manufacturer: []
      productName: []
      systemName: []
      productGUID: []
    elements:
      axes: []
      buttons: []
    variants: []
  elementIdentifierIdCounter: 24
