%YAML 1.1
%TAG !u! tag:unity3d.com,2011:
--- !u!114 &11400000
MonoBehaviour:
  m_ObjectHideFlags: 0
  m_PrefabParentObject: {fileID: 0}
  m_PrefabInternal: {fileID: 0}
  m_GameObject: {fileID: 0}
  m_Enabled: 1
  m_EditorHideFlags: 0
  m_Script: {fileID: 323110133, guid: 09c9b883b79ef864a99683bb36c5776d, type: 3}
  m_Name: OculusTouchLeft
  m_EditorClassIdentifier: 
  controllerName: Oculus Touch (Left)
  editorControllerName: Oculus Touch Left (Unity)
  description: 
  controllerGuid: af791365-96f2-4160-9ed6-b0b4f59259d0
  templateGuids:
  - 83b427e4-086f-47f3-bb06-be266abd1ca5
  hideInLists: 0
  elementIdentifiers:
  - _id: 0
    _name: Stick X
    _elementType: 0
    _compoundElementType: 0
  - _id: 1
    _name: Stick Y
    _elementType: 0
    _compoundElementType: 0
  - _id: 12
    _name: Stick Touch
    _elementType: 1
    _compoundElementType: 0
  - _id: 2
    _name: X
    _elementType: 1
    _compoundElementType: 0
  - _id: 3
    _name: X Touch
    _elementType: 1
    _compoundElementType: 0
  - _id: 4
    _name: Y
    _elementType: 1
    _compoundElementType: 0
  - _id: 5
    _name: Y Touch
    _elementType: 1
    _compoundElementType: 0
  - _id: 6
    _name: Start
    _elementType: 1
    _compoundElementType: 0
  - _id: 7
    _name: Index Trigger
    _elementType: 0
    _compoundElementType: 0
  - _id: 8
    _name: Index Trigger Touch
    _elementType: 1
    _compoundElementType: 0
  - _id: 9
    _name: Index Trigger Near Touch
    _elementType: 1
    _compoundElementType: 0
  - _id: 10
    _name: Hand Trigger
    _elementType: 0
    _compoundElementType: 0
  - _id: 11
    _name: Stick Button
    _elementType: 1
    _compoundElementType: 0
  - _id: 13
    _name: Thumb Rest Touch
    _elementType: 1
    _compoundElementType: 0
  - _id: 14
    _name: Thumb Rest Near Touch
    _elementType: 1
    _compoundElementType: 0
  - _id: 16
    _name: Stick
    _elementType: 100
    _compoundElementType: 0
  compoundElements:
  - type: 0
    elementIdentifier: 16
    componentElementIdentifiers: 0000000001000000
  directInput:
    description: 
    matchingCriteria:
      axisCount: 0
      buttonCount: 0
      disabled: 0
      tag: 
      hatCount: 0
      productName_useRegex: 0
      productName: []
      productGUID: []
      productId: 
      deviceType: 0
    elements:
      axes: []
      buttons: []
    variants: []
  rawInput:
    description: 
    matchingCriteria:
      axisCount: 0
      buttonCount: 0
      disabled: 0
      tag: 
      hatCount: 0
      productName_useRegex: 0
      productName: []
      productGUID: []
      productId: 
      deviceType: 0
    elements:
      axes: []
      buttons: []
    variants: []
  xInput:
    description: 
    matchingCriteria:
      axisCount: 0
      buttonCount: 0
      disabled: 0
      tag: 
      subType: 
    elements:
      axes: []
      buttons: []
    variants: []
  osx:
    description: 
    matchingCriteria:
      axisCount: 0
      buttonCount: 0
      disabled: 0
      tag: 
      hatCount: 0
      productName_useRegex: 0
      productName: []
      manufacturer: []
      productId: 
      vendorId: 
    elements:
      axes: []
      buttons: []
    variants: []
  linux:
    description: 
    matchingCriteria:
      axisCount: 0
      buttonCount: 0
      disabled: 0
      tag: 
      hatCount: 0
      manufacturer_useRegex: 0
      productName_useRegex: 0
      systemName_useRegex: 0
      manufacturer: []
      productName: []
      systemName: []
      productGUID: []
    elements:
      axes: []
      buttons: []
    variants: []
  windowsUWP:
    description: 
    matchingCriteria:
      axisCount: 0
      buttonCount: 0
      disabled: 0
      tag: 
      hatCount: 0
      manufacturer_useRegex: 0
      productName_useRegex: 0
      manufacturer: []
      productName: []
      productGUID: []
    elements:
      axes: []
      buttons: []
    variants: []
  fallback_Windows:
    description: 
    matchingCriteria:
      axisCount: 0
      buttonCount: 0
      disabled: 0
      tag: 
      alwaysMatch: 0
      productName_useRegex: 0
      productName:
      - Oculus Touch Controller - Left
      matchUnityVersion: 1
      matchUnityVersion_min: 5.5.0p4
      matchUnityVersion_max: 
    elements:
      axes:
      - elementIdentifier: 0
        sourceType: 1
        sourceAxis: 1
        axisDeadZone: 0.01
        sourceButton: 0
        sourceKeyCode: 0
        customCalculation: {fileID: 0}
        customCalculationSourceData: []
        invert: 0
        sourceAxisRange: 0
        buttonAxisContribution: 0
        calibrateAxis: 0
        axisZero: 0
        axisMin: 0
        axisMax: 0
        axisInfo:
          _dataFormat: 0
          _excludeFromPolling: 0
      - elementIdentifier: 1
        sourceType: 1
        sourceAxis: 2
        axisDeadZone: 0.01
        sourceButton: 0
        sourceKeyCode: 0
        customCalculation: {fileID: 0}
        customCalculationSourceData: []
        invert: 1
        sourceAxisRange: 0
        buttonAxisContribution: 0
        calibrateAxis: 0
        axisZero: 0
        axisMin: 0
        axisMax: 0
        axisInfo:
          _dataFormat: 0
          _excludeFromPolling: 0
      - elementIdentifier: 7
        sourceType: 1
        sourceAxis: 9
        axisDeadZone: 0.01
        sourceButton: 0
        sourceKeyCode: 0
        customCalculation: {fileID: 0}
        customCalculationSourceData: []
        invert: 0
        sourceAxisRange: 0
        buttonAxisContribution: 0
        calibrateAxis: 0
        axisZero: 0
        axisMin: 0
        axisMax: 0
        axisInfo:
          _dataFormat: 0
          _excludeFromPolling: 0
      - elementIdentifier: 10
        sourceType: 1
        sourceAxis: 11
        axisDeadZone: 0.01
        sourceButton: 0
        sourceKeyCode: 0
        customCalculation: {fileID: 0}
        customCalculationSourceData: []
        invert: 0
        sourceAxisRange: 0
        buttonAxisContribution: 0
        calibrateAxis: 0
        axisZero: 0
        axisMin: 0
        axisMax: 0
        axisInfo:
          _dataFormat: 0
          _excludeFromPolling: 0
      buttons:
      - elementIdentifier: 2
        sourceType: 0
        sourceAxis: 0
        axisDeadZone: 0
        sourceButton: 3
        sourceKeyCode: 0
        customCalculation: {fileID: 0}
        customCalculationSourceData: []
        sourceAxisPole: 0
        unityHat_sourceAxis1: 0
        unityHat_sourceAxis2: 0
        unityHat_isActiveAxisValues1: {x: 0, y: 0}
        unityHat_isActiveAxisValues2: {x: 0, y: 0}
        unityHat_isActiveAxisValues3: {x: 0, y: 0}
        unityHat_zeroValues: {x: 0, y: 0}
        unityHat_checkNeverPressed: 0
        unityHat_neverPressedZeroValues: {x: 0, y: 0}
        requireMultipleButtons: 0
        requiredButtons: 
        ignoreIfButtonsActive: 0
        ignoreIfButtonsActiveButtons: 
        buttonInfo:
          _excludeFromPolling: 0
          _isPressureSensitive: 0
      - elementIdentifier: 3
        sourceType: 0
        sourceAxis: 0
        axisDeadZone: 0
        sourceButton: 13
        sourceKeyCode: 0
        customCalculation: {fileID: 0}
        customCalculationSourceData: []
        sourceAxisPole: 0
        unityHat_sourceAxis1: 0
        unityHat_sourceAxis2: 0
        unityHat_isActiveAxisValues1: {x: 0, y: 0}
        unityHat_isActiveAxisValues2: {x: 0, y: 0}
        unityHat_isActiveAxisValues3: {x: 0, y: 0}
        unityHat_zeroValues: {x: 0, y: 0}
        unityHat_checkNeverPressed: 0
        unityHat_neverPressedZeroValues: {x: 0, y: 0}
        requireMultipleButtons: 0
        requiredButtons: 
        ignoreIfButtonsActive: 0
        ignoreIfButtonsActiveButtons: 
        buttonInfo:
          _excludeFromPolling: 1
          _isPressureSensitive: 0
      - elementIdentifier: 4
        sourceType: 0
        sourceAxis: 0
        axisDeadZone: 0
        sourceButton: 4
        sourceKeyCode: 0
        customCalculation: {fileID: 0}
        customCalculationSourceData: []
        sourceAxisPole: 0
        unityHat_sourceAxis1: 0
        unityHat_sourceAxis2: 0
        unityHat_isActiveAxisValues1: {x: 0, y: 0}
        unityHat_isActiveAxisValues2: {x: 0, y: 0}
        unityHat_isActiveAxisValues3: {x: 0, y: 0}
        unityHat_zeroValues: {x: 0, y: 0}
        unityHat_checkNeverPressed: 0
        unityHat_neverPressedZeroValues: {x: 0, y: 0}
        requireMultipleButtons: 0
        requiredButtons: 
        ignoreIfButtonsActive: 0
        ignoreIfButtonsActiveButtons: 
        buttonInfo:
          _excludeFromPolling: 0
          _isPressureSensitive: 0
      - elementIdentifier: 5
        sourceType: 0
        sourceAxis: 0
        axisDeadZone: 0
        sourceButton: 14
        sourceKeyCode: 0
        customCalculation: {fileID: 0}
        customCalculationSourceData: []
        sourceAxisPole: 0
        unityHat_sourceAxis1: 0
        unityHat_sourceAxis2: 0
        unityHat_isActiveAxisValues1: {x: 0, y: 0}
        unityHat_isActiveAxisValues2: {x: 0, y: 0}
        unityHat_isActiveAxisValues3: {x: 0, y: 0}
        unityHat_zeroValues: {x: 0, y: 0}
        unityHat_checkNeverPressed: 0
        unityHat_neverPressedZeroValues: {x: 0, y: 0}
        requireMultipleButtons: 0
        requiredButtons: 
        ignoreIfButtonsActive: 0
        ignoreIfButtonsActiveButtons: 
        buttonInfo:
          _excludeFromPolling: 1
          _isPressureSensitive: 0
      - elementIdentifier: 6
        sourceType: 0
        sourceAxis: 0
        axisDeadZone: 0
        sourceButton: 8
        sourceKeyCode: 0
        customCalculation: {fileID: 0}
        customCalculationSourceData: []
        sourceAxisPole: 0
        unityHat_sourceAxis1: 0
        unityHat_sourceAxis2: 0
        unityHat_isActiveAxisValues1: {x: 0, y: 0}
        unityHat_isActiveAxisValues2: {x: 0, y: 0}
        unityHat_isActiveAxisValues3: {x: 0, y: 0}
        unityHat_zeroValues: {x: 0, y: 0}
        unityHat_checkNeverPressed: 0
        unityHat_neverPressedZeroValues: {x: 0, y: 0}
        requireMultipleButtons: 0
        requiredButtons: 
        ignoreIfButtonsActive: 0
        ignoreIfButtonsActiveButtons: 
        buttonInfo:
          _excludeFromPolling: 0
          _isPressureSensitive: 0
      - elementIdentifier: 8
        sourceType: 0
        sourceAxis: 0
        axisDeadZone: 0
        sourceButton: 15
        sourceKeyCode: 0
        customCalculation: {fileID: 0}
        customCalculationSourceData: []
        sourceAxisPole: 0
        unityHat_sourceAxis1: 0
        unityHat_sourceAxis2: 0
        unityHat_isActiveAxisValues1: {x: 0, y: 0}
        unityHat_isActiveAxisValues2: {x: 0, y: 0}
        unityHat_isActiveAxisValues3: {x: 0, y: 0}
        unityHat_zeroValues: {x: 0, y: 0}
        unityHat_checkNeverPressed: 0
        unityHat_neverPressedZeroValues: {x: 0, y: 0}
        requireMultipleButtons: 0
        requiredButtons: 
        ignoreIfButtonsActive: 0
        ignoreIfButtonsActiveButtons: 
        buttonInfo:
          _excludeFromPolling: 1
          _isPressureSensitive: 0
      - elementIdentifier: 9
        sourceType: 1
        sourceAxis: 13
        axisDeadZone: 0
        sourceButton: 0
        sourceKeyCode: 0
        customCalculation: {fileID: 0}
        customCalculationSourceData: []
        sourceAxisPole: 0
        unityHat_sourceAxis1: 0
        unityHat_sourceAxis2: 0
        unityHat_isActiveAxisValues1: {x: 0, y: 0}
        unityHat_isActiveAxisValues2: {x: 0, y: 0}
        unityHat_isActiveAxisValues3: {x: 0, y: 0}
        unityHat_zeroValues: {x: 0, y: 0}
        unityHat_checkNeverPressed: 0
        unityHat_neverPressedZeroValues: {x: 0, y: 0}
        requireMultipleButtons: 0
        requiredButtons: 
        ignoreIfButtonsActive: 0
        ignoreIfButtonsActiveButtons: 
        buttonInfo:
          _excludeFromPolling: 1
          _isPressureSensitive: 0
      - elementIdentifier: 11
        sourceType: 0
        sourceAxis: 0
        axisDeadZone: 0
        sourceButton: 9
        sourceKeyCode: 0
        customCalculation: {fileID: 0}
        customCalculationSourceData: []
        sourceAxisPole: 0
        unityHat_sourceAxis1: 0
        unityHat_sourceAxis2: 0
        unityHat_isActiveAxisValues1: {x: 0, y: 0}
        unityHat_isActiveAxisValues2: {x: 0, y: 0}
        unityHat_isActiveAxisValues3: {x: 0, y: 0}
        unityHat_zeroValues: {x: 0, y: 0}
        unityHat_checkNeverPressed: 0
        unityHat_neverPressedZeroValues: {x: 0, y: 0}
        requireMultipleButtons: 0
        requiredButtons: 
        ignoreIfButtonsActive: 0
        ignoreIfButtonsActiveButtons: 
        buttonInfo:
          _excludeFromPolling: 0
          _isPressureSensitive: 0
      - elementIdentifier: 12
        sourceType: 0
        sourceAxis: 0
        axisDeadZone: 0
        sourceButton: 17
        sourceKeyCode: 0
        customCalculation: {fileID: 0}
        customCalculationSourceData: []
        sourceAxisPole: 0
        unityHat_sourceAxis1: 0
        unityHat_sourceAxis2: 0
        unityHat_isActiveAxisValues1: {x: 0, y: 0}
        unityHat_isActiveAxisValues2: {x: 0, y: 0}
        unityHat_isActiveAxisValues3: {x: 0, y: 0}
        unityHat_zeroValues: {x: 0, y: 0}
        unityHat_checkNeverPressed: 0
        unityHat_neverPressedZeroValues: {x: 0, y: 0}
        requireMultipleButtons: 0
        requiredButtons: 
        ignoreIfButtonsActive: 0
        ignoreIfButtonsActiveButtons: 
        buttonInfo:
          _excludeFromPolling: 1
          _isPressureSensitive: 0
      - elementIdentifier: 13
        sourceType: 0
        sourceAxis: 0
        axisDeadZone: 0
        sourceButton: 19
        sourceKeyCode: 0
        customCalculation: {fileID: 0}
        customCalculationSourceData: []
        sourceAxisPole: 0
        unityHat_sourceAxis1: 0
        unityHat_sourceAxis2: 0
        unityHat_isActiveAxisValues1: {x: 0, y: 0}
        unityHat_isActiveAxisValues2: {x: 0, y: 0}
        unityHat_isActiveAxisValues3: {x: 0, y: 0}
        unityHat_zeroValues: {x: 0, y: 0}
        unityHat_checkNeverPressed: 0
        unityHat_neverPressedZeroValues: {x: 0, y: 0}
        requireMultipleButtons: 0
        requiredButtons: 
        ignoreIfButtonsActive: 0
        ignoreIfButtonsActiveButtons: 
        buttonInfo:
          _excludeFromPolling: 0
          _isPressureSensitive: 0
      - elementIdentifier: 14
        sourceType: 1
        sourceAxis: 15
        axisDeadZone: 0
        sourceButton: 0
        sourceKeyCode: 0
        customCalculation: {fileID: 0}
        customCalculationSourceData: []
        sourceAxisPole: 0
        unityHat_sourceAxis1: 0
        unityHat_sourceAxis2: 0
        unityHat_isActiveAxisValues1: {x: 0, y: 0}
        unityHat_isActiveAxisValues2: {x: 0, y: 0}
        unityHat_isActiveAxisValues3: {x: 0, y: 0}
        unityHat_zeroValues: {x: 0, y: 0}
        unityHat_checkNeverPressed: 0
        unityHat_neverPressedZeroValues: {x: 0, y: 0}
        requireMultipleButtons: 0
        requiredButtons: 
        ignoreIfButtonsActive: 0
        ignoreIfButtonsActiveButtons: 
        buttonInfo:
          _excludeFromPolling: 1
          _isPressureSensitive: 0
    variants:
    - description: Pre Unity 5.5.0p4
      matchingCriteria:
        axisCount: 0
        buttonCount: 0
        disabled: 0
        tag: 
        alwaysMatch: 0
        productName_useRegex: 0
        productName:
        - Oculus Touch Controller - Left
        matchUnityVersion: 1
        matchUnityVersion_min: 
        matchUnityVersion_max: 5.5.0p3
      elements:
        axes:
        - elementIdentifier: 0
          sourceType: 1
          sourceAxis: 1
          axisDeadZone: 0.01
          sourceButton: 0
          sourceKeyCode: 0
          customCalculation: {fileID: 0}
          customCalculationSourceData: []
          invert: 0
          sourceAxisRange: 0
          buttonAxisContribution: 0
          calibrateAxis: 0
          axisZero: 0
          axisMin: 0
          axisMax: 0
          axisInfo:
            _dataFormat: 0
            _excludeFromPolling: 0
        - elementIdentifier: 1
          sourceType: 1
          sourceAxis: 2
          axisDeadZone: 0.01
          sourceButton: 0
          sourceKeyCode: 0
          customCalculation: {fileID: 0}
          customCalculationSourceData: []
          invert: 0
          sourceAxisRange: 0
          buttonAxisContribution: 0
          calibrateAxis: 0
          axisZero: 0
          axisMin: 0
          axisMax: 0
          axisInfo:
            _dataFormat: 0
            _excludeFromPolling: 0
        - elementIdentifier: 7
          sourceType: 1
          sourceAxis: 9
          axisDeadZone: 0.01
          sourceButton: 0
          sourceKeyCode: 0
          customCalculation: {fileID: 0}
          customCalculationSourceData: []
          invert: 0
          sourceAxisRange: 0
          buttonAxisContribution: 0
          calibrateAxis: 0
          axisZero: 0
          axisMin: 0
          axisMax: 0
          axisInfo:
            _dataFormat: 0
            _excludeFromPolling: 0
        - elementIdentifier: 10
          sourceType: 1
          sourceAxis: 11
          axisDeadZone: 0.01
          sourceButton: 0
          sourceKeyCode: 0
          customCalculation: {fileID: 0}
          customCalculationSourceData: []
          invert: 0
          sourceAxisRange: 0
          buttonAxisContribution: 0
          calibrateAxis: 0
          axisZero: 0
          axisMin: 0
          axisMax: 0
          axisInfo:
            _dataFormat: 0
            _excludeFromPolling: 0
        buttons:
        - elementIdentifier: 2
          sourceType: 0
          sourceAxis: 0
          axisDeadZone: 0
          sourceButton: 3
          sourceKeyCode: 0
          customCalculation: {fileID: 0}
          customCalculationSourceData: []
          sourceAxisPole: 0
          unityHat_sourceAxis1: 0
          unityHat_sourceAxis2: 0
          unityHat_isActiveAxisValues1: {x: 0, y: 0}
          unityHat_isActiveAxisValues2: {x: 0, y: 0}
          unityHat_isActiveAxisValues3: {x: 0, y: 0}
          unityHat_zeroValues: {x: 0, y: 0}
          unityHat_checkNeverPressed: 0
          unityHat_neverPressedZeroValues: {x: 0, y: 0}
          requireMultipleButtons: 0
          requiredButtons: 
          ignoreIfButtonsActive: 0
          ignoreIfButtonsActiveButtons: 
          buttonInfo:
            _excludeFromPolling: 0
            _isPressureSensitive: 0
        - elementIdentifier: 3
          sourceType: 0
          sourceAxis: 0
          axisDeadZone: 0
          sourceButton: 13
          sourceKeyCode: 0
          customCalculation: {fileID: 0}
          customCalculationSourceData: []
          sourceAxisPole: 0
          unityHat_sourceAxis1: 0
          unityHat_sourceAxis2: 0
          unityHat_isActiveAxisValues1: {x: 0, y: 0}
          unityHat_isActiveAxisValues2: {x: 0, y: 0}
          unityHat_isActiveAxisValues3: {x: 0, y: 0}
          unityHat_zeroValues: {x: 0, y: 0}
          unityHat_checkNeverPressed: 0
          unityHat_neverPressedZeroValues: {x: 0, y: 0}
          requireMultipleButtons: 0
          requiredButtons: 
          ignoreIfButtonsActive: 0
          ignoreIfButtonsActiveButtons: 
          buttonInfo:
            _excludeFromPolling: 1
            _isPressureSensitive: 0
        - elementIdentifier: 4
          sourceType: 0
          sourceAxis: 0
          axisDeadZone: 0
          sourceButton: 4
          sourceKeyCode: 0
          customCalculation: {fileID: 0}
          customCalculationSourceData: []
          sourceAxisPole: 0
          unityHat_sourceAxis1: 0
          unityHat_sourceAxis2: 0
          unityHat_isActiveAxisValues1: {x: 0, y: 0}
          unityHat_isActiveAxisValues2: {x: 0, y: 0}
          unityHat_isActiveAxisValues3: {x: 0, y: 0}
          unityHat_zeroValues: {x: 0, y: 0}
          unityHat_checkNeverPressed: 0
          unityHat_neverPressedZeroValues: {x: 0, y: 0}
          requireMultipleButtons: 0
          requiredButtons: 
          ignoreIfButtonsActive: 0
          ignoreIfButtonsActiveButtons: 
          buttonInfo:
            _excludeFromPolling: 0
            _isPressureSensitive: 0
        - elementIdentifier: 5
          sourceType: 0
          sourceAxis: 0
          axisDeadZone: 0
          sourceButton: 14
          sourceKeyCode: 0
          customCalculation: {fileID: 0}
          customCalculationSourceData: []
          sourceAxisPole: 0
          unityHat_sourceAxis1: 0
          unityHat_sourceAxis2: 0
          unityHat_isActiveAxisValues1: {x: 0, y: 0}
          unityHat_isActiveAxisValues2: {x: 0, y: 0}
          unityHat_isActiveAxisValues3: {x: 0, y: 0}
          unityHat_zeroValues: {x: 0, y: 0}
          unityHat_checkNeverPressed: 0
          unityHat_neverPressedZeroValues: {x: 0, y: 0}
          requireMultipleButtons: 0
          requiredButtons: 
          ignoreIfButtonsActive: 0
          ignoreIfButtonsActiveButtons: 
          buttonInfo:
            _excludeFromPolling: 1
            _isPressureSensitive: 0
        - elementIdentifier: 6
          sourceType: 0
          sourceAxis: 0
          axisDeadZone: 0
          sourceButton: 8
          sourceKeyCode: 0
          customCalculation: {fileID: 0}
          customCalculationSourceData: []
          sourceAxisPole: 0
          unityHat_sourceAxis1: 0
          unityHat_sourceAxis2: 0
          unityHat_isActiveAxisValues1: {x: 0, y: 0}
          unityHat_isActiveAxisValues2: {x: 0, y: 0}
          unityHat_isActiveAxisValues3: {x: 0, y: 0}
          unityHat_zeroValues: {x: 0, y: 0}
          unityHat_checkNeverPressed: 0
          unityHat_neverPressedZeroValues: {x: 0, y: 0}
          requireMultipleButtons: 0
          requiredButtons: 
          ignoreIfButtonsActive: 0
          ignoreIfButtonsActiveButtons: 
          buttonInfo:
            _excludeFromPolling: 0
            _isPressureSensitive: 0
        - elementIdentifier: 8
          sourceType: 0
          sourceAxis: 0
          axisDeadZone: 0
          sourceButton: 15
          sourceKeyCode: 0
          customCalculation: {fileID: 0}
          customCalculationSourceData: []
          sourceAxisPole: 0
          unityHat_sourceAxis1: 0
          unityHat_sourceAxis2: 0
          unityHat_isActiveAxisValues1: {x: 0, y: 0}
          unityHat_isActiveAxisValues2: {x: 0, y: 0}
          unityHat_isActiveAxisValues3: {x: 0, y: 0}
          unityHat_zeroValues: {x: 0, y: 0}
          unityHat_checkNeverPressed: 0
          unityHat_neverPressedZeroValues: {x: 0, y: 0}
          requireMultipleButtons: 0
          requiredButtons: 
          ignoreIfButtonsActive: 0
          ignoreIfButtonsActiveButtons: 
          buttonInfo:
            _excludeFromPolling: 1
            _isPressureSensitive: 0
        - elementIdentifier: 9
          sourceType: 1
          sourceAxis: 13
          axisDeadZone: 0
          sourceButton: 0
          sourceKeyCode: 0
          customCalculation: {fileID: 0}
          customCalculationSourceData: []
          sourceAxisPole: 0
          unityHat_sourceAxis1: 0
          unityHat_sourceAxis2: 0
          unityHat_isActiveAxisValues1: {x: 0, y: 0}
          unityHat_isActiveAxisValues2: {x: 0, y: 0}
          unityHat_isActiveAxisValues3: {x: 0, y: 0}
          unityHat_zeroValues: {x: 0, y: 0}
          unityHat_checkNeverPressed: 0
          unityHat_neverPressedZeroValues: {x: 0, y: 0}
          requireMultipleButtons: 0
          requiredButtons: 
          ignoreIfButtonsActive: 0
          ignoreIfButtonsActiveButtons: 
          buttonInfo:
            _excludeFromPolling: 1
            _isPressureSensitive: 0
        - elementIdentifier: 11
          sourceType: 0
          sourceAxis: 0
          axisDeadZone: 0
          sourceButton: 9
          sourceKeyCode: 0
          customCalculation: {fileID: 0}
          customCalculationSourceData: []
          sourceAxisPole: 0
          unityHat_sourceAxis1: 0
          unityHat_sourceAxis2: 0
          unityHat_isActiveAxisValues1: {x: 0, y: 0}
          unityHat_isActiveAxisValues2: {x: 0, y: 0}
          unityHat_isActiveAxisValues3: {x: 0, y: 0}
          unityHat_zeroValues: {x: 0, y: 0}
          unityHat_checkNeverPressed: 0
          unityHat_neverPressedZeroValues: {x: 0, y: 0}
          requireMultipleButtons: 0
          requiredButtons: 
          ignoreIfButtonsActive: 0
          ignoreIfButtonsActiveButtons: 
          buttonInfo:
            _excludeFromPolling: 0
            _isPressureSensitive: 0
        - elementIdentifier: 12
          sourceType: 0
          sourceAxis: 0
          axisDeadZone: 0
          sourceButton: 17
          sourceKeyCode: 0
          customCalculation: {fileID: 0}
          customCalculationSourceData: []
          sourceAxisPole: 0
          unityHat_sourceAxis1: 0
          unityHat_sourceAxis2: 0
          unityHat_isActiveAxisValues1: {x: 0, y: 0}
          unityHat_isActiveAxisValues2: {x: 0, y: 0}
          unityHat_isActiveAxisValues3: {x: 0, y: 0}
          unityHat_zeroValues: {x: 0, y: 0}
          unityHat_checkNeverPressed: 0
          unityHat_neverPressedZeroValues: {x: 0, y: 0}
          requireMultipleButtons: 0
          requiredButtons: 
          ignoreIfButtonsActive: 0
          ignoreIfButtonsActiveButtons: 
          buttonInfo:
            _excludeFromPolling: 1
            _isPressureSensitive: 0
        - elementIdentifier: 13
          sourceType: 0
          sourceAxis: 0
          axisDeadZone: 0
          sourceButton: 19
          sourceKeyCode: 0
          customCalculation: {fileID: 0}
          customCalculationSourceData: []
          sourceAxisPole: 0
          unityHat_sourceAxis1: 0
          unityHat_sourceAxis2: 0
          unityHat_isActiveAxisValues1: {x: 0, y: 0}
          unityHat_isActiveAxisValues2: {x: 0, y: 0}
          unityHat_isActiveAxisValues3: {x: 0, y: 0}
          unityHat_zeroValues: {x: 0, y: 0}
          unityHat_checkNeverPressed: 0
          unityHat_neverPressedZeroValues: {x: 0, y: 0}
          requireMultipleButtons: 0
          requiredButtons: 
          ignoreIfButtonsActive: 0
          ignoreIfButtonsActiveButtons: 
          buttonInfo:
            _excludeFromPolling: 0
            _isPressureSensitive: 0
        - elementIdentifier: 14
          sourceType: 1
          sourceAxis: 15
          axisDeadZone: 0
          sourceButton: 0
          sourceKeyCode: 0
          customCalculation: {fileID: 0}
          customCalculationSourceData: []
          sourceAxisPole: 0
          unityHat_sourceAxis1: 0
          unityHat_sourceAxis2: 0
          unityHat_isActiveAxisValues1: {x: 0, y: 0}
          unityHat_isActiveAxisValues2: {x: 0, y: 0}
          unityHat_isActiveAxisValues3: {x: 0, y: 0}
          unityHat_zeroValues: {x: 0, y: 0}
          unityHat_checkNeverPressed: 0
          unityHat_neverPressedZeroValues: {x: 0, y: 0}
          requireMultipleButtons: 0
          requiredButtons: 
          ignoreIfButtonsActive: 0
          ignoreIfButtonsActiveButtons: 
          buttonInfo:
            _excludeFromPolling: 1
            _isPressureSensitive: 0
  fallback_WindowsUWP:
    description: 
    matchingCriteria:
      axisCount: 0
      buttonCount: 0
      disabled: 0
      tag: 
      alwaysMatch: 0
      productName_useRegex: 0
      productName: []
      matchUnityVersion: 0
      matchUnityVersion_min: 
      matchUnityVersion_max: 
    elements:
      axes: []
      buttons: []
    variants: []
  fallback_OSX:
    description: 
    matchingCriteria:
      axisCount: 0
      buttonCount: 0
      disabled: 0
      tag: 
      alwaysMatch: 0
      productName_useRegex: 0
      productName: []
      matchUnityVersion: 0
      matchUnityVersion_min: 
      matchUnityVersion_max: 
    elements:
      axes: []
      buttons: []
    variants: []
  fallback_Linux:
    description: 
    matchingCriteria:
      axisCount: 0
      buttonCount: 0
      disabled: 0
      tag: 
      alwaysMatch: 0
      productName_useRegex: 0
      productName: []
      matchUnityVersion: 0
      matchUnityVersion_min: 
      matchUnityVersion_max: 
    elements:
      axes: []
      buttons: []
    variants: []
  fallback_Linux_PreConfigured:
    description: 
    matchingCriteria:
      axisCount: 0
      buttonCount: 0
      disabled: 0
      tag: 
      alwaysMatch: 0
      productName_useRegex: 0
      productName: []
      matchUnityVersion: 0
      matchUnityVersion_min: 
      matchUnityVersion_max: 
    elements:
      axes: []
      buttons: []
    variants: []
  fallback_Android:
    description: 
    matchingCriteria:
      axisCount: 0
      buttonCount: 0
      disabled: 0
      tag: 
      alwaysMatch: 0
      productName_useRegex: 0
      productName: []
      matchUnityVersion: 0
      matchUnityVersion_min: 
      matchUnityVersion_max: 
    elements:
      axes: []
      buttons: []
    variants: []
  fallback_iOS:
    description: 
    matchingCriteria:
      axisCount: 0
      buttonCount: 0
      disabled: 0
      tag: 
      alwaysMatch: 0
      productName_useRegex: 0
      productName: []
      matchUnityVersion: 0
      matchUnityVersion_min: 
      matchUnityVersion_max: 
    elements:
      axes: []
      buttons: []
    variants: []
  fallback_Blackberry:
    description: 
    matchingCriteria:
      axisCount: 0
      buttonCount: 0
      disabled: 0
      tag: 
      alwaysMatch: 0
      productName_useRegex: 0
      productName: []
      matchUnityVersion: 0
      matchUnityVersion_min: 
      matchUnityVersion_max: 
    elements:
      axes: []
      buttons: []
    variants: []
  fallback_WindowsPhone8:
    description: 
    matchingCriteria:
      axisCount: 0
      buttonCount: 0
      disabled: 0
      tag: 
      alwaysMatch: 0
      productName_useRegex: 0
      productName: []
      matchUnityVersion: 0
      matchUnityVersion_min: 
      matchUnityVersion_max: 
    elements:
      axes: []
      buttons: []
    variants: []
  fallback_XBox360:
    description: 
    matchingCriteria:
      axisCount: 0
      buttonCount: 0
      disabled: 0
      tag: 
      alwaysMatch: 0
      productName_useRegex: 0
      productName: []
      matchUnityVersion: 0
      matchUnityVersion_min: 
      matchUnityVersion_max: 
    elements:
      axes: []
      buttons: []
    variants: []
  fallback_XBoxOne:
    description: 
    matchingCriteria:
      axisCount: 0
      buttonCount: 0
      disabled: 0
      tag: 
      alwaysMatch: 0
      productName_useRegex: 0
      productName: []
      matchUnityVersion: 0
      matchUnityVersion_min: 
      matchUnityVersion_max: 
    elements:
      axes: []
      buttons: []
    variants: []
  fallback_PS3:
    description: 
    matchingCriteria:
      axisCount: 0
      buttonCount: 0
      disabled: 0
      tag: 
      alwaysMatch: 0
      productName_useRegex: 0
      productName: []
      matchUnityVersion: 0
      matchUnityVersion_min: 
      matchUnityVersion_max: 
    elements:
      axes: []
      buttons: []
    variants: []
  fallback_PS4:
    description: 
    matchingCriteria:
      axisCount: 0
      buttonCount: 0
      disabled: 0
      tag: 
      alwaysMatch: 0
      productName_useRegex: 0
      productName: []
      matchUnityVersion: 0
      matchUnityVersion_min: 
      matchUnityVersion_max: 
    elements:
      axes: []
      buttons: []
    variants: []
  fallback_PSM:
    description: 
    matchingCriteria:
      axisCount: 0
      buttonCount: 0
      disabled: 0
      tag: 
      alwaysMatch: 0
      productName_useRegex: 0
      productName: []
      matchUnityVersion: 0
      matchUnityVersion_min: 
      matchUnityVersion_max: 
    elements:
      axes: []
      buttons: []
    variants: []
  fallback_PSVita:
    description: 
    matchingCriteria:
      axisCount: 0
      buttonCount: 0
      disabled: 0
      tag: 
      alwaysMatch: 0
      productName_useRegex: 0
      productName: []
      matchUnityVersion: 0
      matchUnityVersion_min: 
      matchUnityVersion_max: 
    elements:
      axes: []
      buttons: []
    variants: []
  fallback_Wii:
    description: 
    matchingCriteria:
      axisCount: 0
      buttonCount: 0
      disabled: 0
      tag: 
      alwaysMatch: 0
      productName_useRegex: 0
      productName: []
      matchUnityVersion: 0
      matchUnityVersion_min: 
      matchUnityVersion_max: 
    elements:
      axes: []
      buttons: []
    variants: []
  fallback_WiiU:
    description: 
    matchingCriteria:
      axisCount: 0
      buttonCount: 0
      disabled: 0
      tag: 
      alwaysMatch: 0
      productName_useRegex: 0
      productName: []
      matchUnityVersion: 0
      matchUnityVersion_min: 
      matchUnityVersion_max: 
    elements:
      axes: []
      buttons: []
    variants: []
  fallback_AmazonFireTV:
    description: 
    matchingCriteria:
      axisCount: 0
      buttonCount: 0
      disabled: 0
      tag: 
      alwaysMatch: 0
      productName_useRegex: 0
      productName: []
      matchUnityVersion: 0
      matchUnityVersion_min: 
      matchUnityVersion_max: 
    elements:
      axes: []
      buttons: []
    variants: []
  fallback_RazerForgeTV:
    description: 
    matchingCriteria:
      axisCount: 0
      buttonCount: 0
      disabled: 0
      tag: 
      alwaysMatch: 0
      productName_useRegex: 0
      productName: []
      matchUnityVersion: 0
      matchUnityVersion_min: 
      matchUnityVersion_max: 
    elements:
      axes: []
      buttons: []
    variants: []
  webGL:
    description: 
    matchingCriteria:
      axisCount: 0
      buttonCount: 0
      disabled: 0
      tag: 
      alwaysMatch: 0
      productName_useRegex: 0
      productName: []
      productGUID: []
      mapping: 
      elementCount: []
      clientInfo: []
    elements:
      axes: []
      buttons: []
    variants: []
  ouya:
    description: 
    matchingCriteria:
      axisCount: 0
      buttonCount: 0
      disabled: 0
      tag: 
      alwaysMatch: 0
    elements:
      axes: []
      buttons: []
    variants: []
  xboxOne:
    description: 
    matchingCriteria:
      axisCount: 0
      buttonCount: 0
      disabled: 0
      tag: 
      alwaysMatch: 0
      productName_useRegex: 0
      productName: []
    elements:
      axes: []
      buttons: []
    variants: []
  ps4:
    description: 
    matchingCriteria:
      axisCount: 0
      buttonCount: 0
      disabled: 0
      tag: 
      alwaysMatch: 0
      productName_useRegex: 0
      productName: []
    elements:
      axes: []
      buttons: []
    variants: []
  nintendoSwitch:
    description: 
    matchingCriteria:
      axisCount: 0
      buttonCount: 0
      disabled: 0
      tag: 
      alwaysMatch: 0
      productName_useRegex: 0
      productName: []
    elements:
      axes: []
      buttons: []
    variants: []
  internalDriver:
    description: 
    matchingCriteria:
      axisCount: 0
      buttonCount: 0
      disabled: 0
      tag: 
      alwaysMatch: 0
      productName_useRegex: 0
      productName: []
      vidPid: []
      hatCount: 0
    elements:
      axes: []
      buttons: []
    variants: []
  sdl2_Linux:
    description: 
    matchingCriteria:
      axisCount: 0
      buttonCount: 0
      disabled: 0
      tag: 
      hatCount: 0
      manufacturer_useRegex: 0
      productName_useRegex: 0
      systemName_useRegex: 0
      manufacturer: []
      productName: []
      systemName: []
      productGUID: []
    elements:
      axes: []
      buttons: []
    variants: []
  sdl2_Windows:
    description: 
    matchingCriteria:
      axisCount: 0
      buttonCount: 0
      disabled: 0
      tag: 
      hatCount: 0
      manufacturer_useRegex: 0
      productName_useRegex: 0
      systemName_useRegex: 0
      manufacturer: []
      productName: []
      systemName: []
      productGUID: []
    elements:
      axes: []
      buttons: []
    variants: []
  sdl2_OSX:
    description: 
    matchingCriteria:
      axisCount: 0
      buttonCount: 0
      disabled: 0
      tag: 
      hatCount: 0
      manufacturer_useRegex: 0
      productName_useRegex: 0
      systemName_useRegex: 0
      manufacturer: []
      productName: []
      systemName: []
      productGUID: []
    elements:
      axes: []
      buttons: []
    variants: []
  elementIdentifierIdCounter: 17
